91 30 57 91 17 18 43 86 58 40 77 15 78 29 22 95 15 47  1 59 15 32 72 30 63 84 81 48 27 43 52 84 51 11  8 87 93 88 46  5 51 77  2 14 54 60  6 74 50 12 88  9 35 96 66 69 90 67  8 99 58 95 70 77 26 41 65 27  6 58 97  0 47 73 87 37 33 49 73 64 74 96 65 86 72 24 62 38 49  2 14 26 12  1  7 39 32 70 30 47
76 29 92 29 88  8 29 57 36 95 49 46 89 24 73 34 21 87 49 91 61 89 86 59 54  1 11 20 74 52 51 16 98 76 49 17 23 63 19 71 98 66 46 47  4 73 38  2  0 45 38 49  4  0 36 45  1 49  2 51 31  5 60 40 68 45 77 62  6 72 46 56 41 49 63 28 59 45 14 95 64 17 64 45 50 82 10 68 42 45 56  8 30 59 89 15 22 25 51 62
47 97 89 68 25 33 15 39 18  4 97 60 69 45 34  2 27 62 29 14 62 83 45 94 75 77 11 62 91 58 82 14 11 23 77 97 98 88 90 92 69 17 20 85 37  9  9 22 62 32 14 37 93 56 36 15 40 36 39 27 54 45 99 61 52 71 94 13 59 50 92 29  3 48 57 95 27 98 12 67 52  1 13  4 40 59  0 69 22 71 75 17 34 98 89  4  7 80 28 72
39 54 58 47 46 64 70  2 43 83 47 65 82 50  7 24 62 27 80 24 12 65 74 44 60 47 26  5 42 18 13  3 83  0 32  8 52 92 14 16 33 74 22 39 58 87 47 97 36 70 87 66 91 84 64 20 11 82 36 30 45 93 18 27 78  4 47 51 34 84 26 53 84 87 31 28 58 40 64 50 58 64 56 47 61 52  5 99 46 29 54 35 18 60 85 73 38 49  6 73
35 92 64 21 64 55 19 15 54 17 22 87 70 25 83 27 83 53 15  7 13 27 15 39 48  8 24 44 57 53 71 38 53  6 54 49 16 89 97 30 83 65 31 75 92 13 68 99 90 45 74 12 15 70 76 46 61  8  8 73 95  5 92 60 35 31 56 89 16 55 10 21 30 75 79 68  3 76  9 81 68 79 27 77 36 79 12 10 68  6  3 35 44 58 56 66 20 10 95 78
59 74 39 21 46 70 11 12 83 34 41 21 39 86 35 90 71 99 66 31 38 45 61 75 84 82 85 97 74 90  8 60 54  8 49 39 67  6  5 11 91 31 90 46 27 15 77 12 21 69 80 10 58 24 65 75  3 43  1 64 85 18 71 88 23 20  9 79 23 53 12  0 61 28 67 95 70 20 52  9 54 53 52 91 47 54 96 54  6 93 93 48  7 75 77 20 99 82 40 72
86  2 59  5 73 55 19 99 40 76 61 78 11 14  8 12 69 64 49 88 69 30 74 40 78 59 67 49 41 99 12 37 94 73 20 28 38 34 66 99 53  4 16  1 36 60 50 83 20 85  8 51 52 13 85 13 90 41 41 16 67 14 58 25 55 48 84  1 80 98 83 57 15 13 54 44 62 43 64 26 47 49 65 88 92  9  5 64  6 98 13 22 73 76  4 69 10 38 88 17
31 92 44 58 16 95 62 31 18 68 81 20 30 23 96 26  9 74 83 13 46 31 70 29 86 82 33 97 94 99 91  0 76 75 85 56  0 82 71 44 27 54 17 42 60  9 44 83 59 99 85 92 46 25 71 17 69 54 40 35 35 17 29 61 58 44  2 74 43 95 54 23 87 60 44 30 54 53 45  4  4 14 26 74 41 84 87 27 98 11 99 80 41 58 91 91  1  7 69 25
87 92  9 37 54 28 86 44 81 58 60 49 15 90 48 74 99 13 34 78 29 39 47 13 87 40 47  1 36 11 35 77 13 44 14 11 10 67  8 86 48 49 92 74 54 87 30 84 16 10 24 35 84  8 21 43 28 33 72 95 67 73 96  4 25 75 75 76 59 54 94 77  2 37 77 49 22  9  9  1 28 44 69 69 71  6 11 21 43 86 51 38 97 71  9  2 39 34 75 37
84 68  3  6  7 13 83  3 27 74 83 41 18 39 95 45  4 62 71 38 86  1 85 50  8 81 11 35 96  3 37 19 78  9 68 54 45  2 43 76 49 52 18 67 66  8 51 35 63 84  0 83  9  8  2 64 61 52 93 66 22 20 51 74 44 81 32 25 58 53 78 77 36 22 62 42 25 66 48  7 92 50 62 87 92 63  6 41 11 27 55 39 57 62 28 23 30  8 57 53
52 24 19 92 53 38 31 73  0 92 67 86 87 73 32 69 95 77 30 74 84 16 94 81  5  2 72  5 13 25 39 39 17 75 42 68 25 26  5 17 15 20 20 88 63 80 41 90 91 64  3 76 14 81 47  2 25 82 42 31 33 31 74 33 36 40 59 89 94 59 99 64 28 13 15 70 37 75 32 53 75 69 34 50 48 98 51 23 97 18 14 52 35  2 87 29 27 24 89  1
27 94 50 37  2 38 19 42 11 19 76 38 85 59 29 80 93 27 41 34 59 62 11 58 31 66 29 26 92 24 75  5 18 89 32 68 98 98 93 18 53 58 57 83 73 68  0 19  8 16 78 48 23 56 40 89 88  2 16 42 56 83 76 16 74 51 22 15 19 33 87 69 37 93 25 43 64 23 37 81 53 68 78  3 83 52 12 88 68 21 26 28 29 54  0  8 54 56 79 69
37 25  5 47  6 39 95  2 25 55 42 81 41  5 79 75 85  7 61 98 95 15 11 20  8 50 88 22 38 19 95 97 47 95 25 26 63 13 34 17  6 20 69 72 77 70 64 78 88 83 76 48 35 79 26 79 89 93 35 34 78 80 41 23 88 20 49 99 49 65 20 42 18 72 20 77 64 50 93 80 24  3  3 51 37 92 48 37 22 98 91 79 91 81  0 45  0 75 73 24
81 27 78 26 62 28 22 15 11 34 22  5 47 77 53 35 14  8 32 55 27  2 49 30 14 14 56 73 35 15 75 11  1 10 24 90 71 41 42 64 73 24 78 43 69 36 84 78 97 34 36 72 24 40 74 99 38 67 74 76 51 95 87 77 70 96 87 70 37 23 25 46 35 98 64 59 78 47 14 82 80 59 99  2 78 34 35 54 54  3 38 65 71  3 50 23 28 68 29 74
40 34 29 54 96 14 47 88 98 26 54 55  6 33  4 64 96  1 95 70 86 25 52 50 15 35 79 69  7  4 67 61 31 21 34  1 59 30 66 34  2 85 32 45  5 32 10 96 33 66 33 20  3  6 55  7 42 21 99 74 31 36 92 58 73 46 42 20 71 89 32 69 92  7 90  2 21 93 97 52 35 78 95 14 31 96 47 80 47 41 23 14  6 69 84 65 72 66 24 92
23 49 20 67 72 53 57 15 70 92 42 15 11  8  4 33 78 65 27 79  0 21  0  8 67 96  9 49 34 78 64 89 84 86 16 97 72 41 73 15 74 55 14 60 80 96 53 49 59 76 81 25 13  3 25  4  7 91 10 23 69  4 43 53 26 20 38 86 84 93  2 29 98 36 98 64 60 99 13 83 54 71 32 74 64 97 70 92 49 95 46 97 86 96 11  5 43 97 54 81
95 46 88 49 26 10 85 44 36 51 45 83 87  3 92  2 24 90 80 19 47 25 24 96 59 27 98 64 28 45 64 58 53 78 63 20  3 62 23 29  5 27 33 52 92 50 80 86 34 37 36 87 82 97 26 81 13 70 31 93 10  4  4  6 61 52  4 82 97 98 35 77  9 96 79 53  6 74 53  5 87 43 59 62 63 56 30 99 19 34 18 67  3 80 89 80 99 36 81 43
93 75 23 28 46 59 64 47 56 63 34 32 74 61 44 13 17 55 66 74  4 18 94 29 40 52 15 50 73 71 80 27 87 97 65  2 20 60 79 40 22 15 73 41 30 22 76 59 79 25 28 24  8  9 48 76  1 89 60 66 34 56 94 91 30 46 90 44 63 31 57 92 30 79 84 11 88 54 36 54 52 48 89 56 50 93 26 85 97 61 32 13 37 55 65 93 88 19 52  7
11 74 63 66 17 81 44 15 84 78 45 43 29 73  3 69 51 17 18 20 51 64 96 12  2 69 13 84 95 54 10 65 46 88 63 42 61 91 40 30 20 70 74 19 29 14  7 49 76 61 71 95 55 46 40 39 34 36 69 41 71 11 66 14 57 93 82 91 12 64 68 20 94 86 37 84 11 44 53 75  6 12 88 51 49 70 20 16  9 45 28 36 39 98 34 71 59  8 97 61
39 78 30 28 17  9 99 83 40 69 65 10 94 81 32 11 10 27 56 56 57 11 70 26 83 61 80 74 38 20  6  5 62 70 50 67 34 40 55 49 20 14 17 87 85 75  4 84 33 19 23 96 21 13 89 84 20 42 60 74  4 98 36 60 85 18 18 56 57  0 12 91 49 72 36 31 38 10 36 49 68  1 15 63 31 23  9 20 14 76 89 51 59 35 38 96 37  8 78 75
 4 15 11 33 32 34 13  6 45 70 44 86 50 64 85 11 28 11 59 50 29 45 69 68 87 99 57 42 94 50 59 52 87 41 23 20 61  1 55 33 70 21 32 14 10 64 66 12 74 11 50 46 21  7  5 71 89 96 34 62 58 16 11 63 61 63 96 79 20 19 86 51  3 54 67 67 28  6 18  5 99 39 97 51 40 25  6 31 34  2 84 48 60 93 20  4 93 53 31 86
53 76 52 58 35 21 66 24 32 35 43  2 70 34 42 96 39 13 93  7 31 25 19 30 75  7 97 17 80 34 26 64 27 80  9  4 36 35 65 31 40 76 32 25 22 61 22 92 63 92 23  3 28 39 87 44 94 62 37 82 13 50 80 36 12 56 97 20 14 50  2  9 45  5 70 92 44 44 85 63 93 54 56 62 78 84 92 18 42 89 59  0 31  2 52 13 62 70 31 54
40 91 65 56 81 52 43 99 35  3 16 86 50 47 33 79 61 72 93 52 48 97 74 68 41  6 43 35 30 65 46 27 11 69 81 20 13 51 90 87 80 42 60 11 33 44 81 94 96 81 82  0 16 54 96 73 11 22 97 67 67 16 64 45 69 93 50  3 72  1 61 91 35 83 11 36 95  3  7 34 15 37 43  7 30 57 87 31 54 44 17 83 80 25 54  4 34 76 87 33
63 78 54 59 85 85  7 65 70 42 96  1 69 45 28  5 16 68 70 64 73 11 79 31 97 99 94 23 90 91 19 78 53 34 59 14 61 89 11 90 68 33  8  0 34 54 88 87 80 54 68 50 73 32 64 63  4 38 84  3 27 56 88 15 38 81 34 70  9 27 28 25 81 32 47 31 73 67 28 57 27 10 14 48  3 55 11  6 43 78  6 68  3 60 91 68 40 29 99 25
63 22 64 20 36  7 10  2 96  1 64 28 38 61 41 64 68 95 87  6 93 78 77 57  7 19 31 82  5 65 82 99 44 33 91 42 51 25 50 19 43 67 28 69 96 78 43 95 15 87 57 66 65 97 13 77 98 93  4 18 61 69 56 52 69 35  7 55 90 54 61 75 81 20 49 28 38 82 93 25 55 36 29 98 14 98 33  4 71  4 47 53 19 68 67 37 56 59  5 59
97 62 26 79 86 65 64 39 61  1 23 58  1  0  4 68 70 68 23 67 23 27 52 27 63  2 48 15 13 75  5 62 38 86 53 66 13 75  9 91 68 49 23 22 74 96 21 73 65 15 56 81  9 95 48 53 58 79 13 10 76 81 51 69 17 18 36 44 94 49 61 51 85 18 46 23 68 40 83 31 88 14 41 59 72 67 10 58 11 67 84 77 63 88 14 30  1 13 62 34
90 62 79 89 40  1 95 37 60 71 40 15  5  7  5 71  6 80 30 20  1 58 70 36 52 21 69 88 30 44 39 54 67 55 49 35  6 49 80 36 70 94 66 14  9 50 19 37  5 68 31 41 66  5 21 45 96 41 15 89 83 52 65 76 51 16 22 38 89  9 24 40 93 24 47 88 92 51 42  3 59  4 96 54 67 19  5 37 95 74 76 43 74 66 68 61 18  8 60 68
40 58 18 96 88 94 72  4  2 34 44 25 12 13 41 55 43 36 31 51 30 72 68 70 77 72 82 35 59 56 95 24 56 11 86  7 96 43 36 18 48  8 26 77 10 37 11 85 97 90  2 63 82 22 79 35 46 32 52 41 98 46 79 12 81 99 73 58 24 32  8 69 47 75  2 94 36 29 69 61 16 17 20 18 69 49 46 10 14 46 16 74 54 21 68 23 55  5 85 20
19 67  7 25 62 52 74 53 27 41 20  6 72 12 37 60 67 93 24 21 32 74 43 37 81 47 19  1 45 41 58 67 66 78 43  6  3 42 30 92 86 42 72 85 47 39  2 14 87 49 43 96 60 42 17 24 80 20 80 72 30 83 13 41  0 50 15 21 73 35  4 21 31 57 77 72  7 66 58 18 64  3 32 93  9  2 56 91 93 84 93 64 55 25 60 36 93 49 89 35
77 40 26 53 31  2 76 58 59 44 19 39  3 34 81 38 77  2 97 68 41 79 20 65 87 31 63 64 16 97 41 50 11 92 18 34 54 95 72 50 52 39  4 24 60 63 22 54 51 89 54 47 51 79 59 93  1 85 46 20  1 82 78 72 77  7 24 63 81  7 69 19 36 75 74 27 69 61 55  9 47 79  1 45 29 61 36  4 18 69  6 78 55 92 71 99 66 87 62 61
76 48 67  5 82 78 58 48 22 58 66 98 25 11 96  5 14 17 67 40 89 55 64 98 79 17 27  9 38  5 21 93 68 86 71 63  9  8 58 41 82 46 87 84 10 66 32 72 49 14 40  5 57 88 82 53 90 51 89 57 65 18 16 43 32 95 35 22 44 67 54 82 40 66 83 22 80 58 96 27 34  6 52 92 43 39 57 23  2 91 16 18 50 54 97 28 36 55 47 93
 8 32 86 88 69 93 62 78 29  9 86 42 90 32 48 40 52 87  4 94 92 91 16 92 43 42 24 53 62 13  8 84 12 40 62 49 57 53 64 97 79 70 40  8  1 78 73 67 70 89 93 14 87 91 50 61 73 86 54  8 58 34 23 36 44 97 89 27 71 90  7 43 20 64 23 68 76 54 34 30 46  0 88 97 67 86 15 12 93 46 30 33 35 63 51 94 51 33 68 60
97 91 90 94 67 48 24 30 18 94 20 40  0 80 19 85 19 83 63 14 77 54 23 95 81 95  9 85 37  8 52 51 41 14 65 47  4  9 99 12 21 88 79 64 48 82 83 75 20 14 31  3 23 19 19 87 29 85 91 95  5 66 18 93 34 65 90 58 84 32 33 37  7 93 18  0 16 18 63 34 13 11 80 42 10 57  5 11 89 49 56 47 85 52 38 39 92 22 19  9
36 11 17 50 48 82 57 43 62 94 47 31 14 74 46 33 84 28 90 19 41 18 24 52 25 15 87  6 94 44 59 27 18 90 89 87 51 98  6 73 43 22  1 69 73 25 47 14 37  0 32 26 90 64 38  0 47 87 81 23 44  5 17 57 94 14  5 82 25 90 48 97 29 34 79 63 69 58 37 94 89 48 20 79 66 45 54 34 43 81 75 44 66 15 11 15 74 78 71 50
27 33 38 93 32 33 64 51 67 53 84 56 32 94 32 73 33 39  6 51 79 59 22  2 58 38 51 59  3 70 71 99 47  4 91 59 92 63 90 32 49  9 46 83  7 38 36 59 90 88 57 51 81 46 36 63 22 89 14 78 17 45 26 43 50 46 74 97 98 49 56  8  3 80 66 85 66  1 15 22 70 66 37 39 17 91 13 71 76 16 87 74 67  2 68 10 96 57 76 28
41 81 48 81  5 94 99 57 51 81 13 64 71 64 68 79 98 40 32 78 40 99 76 16 20 53 24 10 96 67 34 43 59  1 10 37 66 26 88 33 11 53 12 42  2 94 70  5 96 19 10 97 91 10  9 21 65 91 85 60 30 42 15 60 34 13  0 14 16 57 40 64 96 17 75 13 68 37 18 75 58 57 13 32 27  5 46 99 10 72 46 94 51 42 93 64 58  0 23 66
39  5 55 90 60 28 67 70 45 53  2 76 93 72 60 64 29 56 68 47 60 98 97 86  3 38 20 19 51 45  2 50 31 64 62 63 12 62 28 14 15  2 37 66 40 91 14 72 33 17 48 11 31 44 80 98 76 52 53 28 78 16  7 19 95 61 75 43  6 85  6 43 40 86 26 64 89 61  4  4 42 79 90  9 39 85 99 45 14 16  2 63 13 18 77 16 42  0 73 46
82 39 52 93 63 48 75 99 82 64 54 79 13 43 98 29 52 71 19  3 49 23 21  2 61 89 18 48 25 93 39 67 57  0 40 27 31 45 86 39 39 45 87 21 64 34 15 44 97  7 88 90 36 63 12 27 19 56 66 94  3 63 69 50 96 68 88 44 52 24 86 24 73  5 90 50 17  0  8 37  5 55 72 82 96  5 14  2 56 49 12 86 28 54 50 76 61 15 90 49
67 90 95 92 49 50 87 39 41 87 39 23 73 38 62 78 41 94 22 77 53 85 65 77 64 62 42 76 99  8 46 78 66 43 72 38 17 51 70 47 36 43  0 27 25 38 53 58 71 26 78 94 48 10 75 23 64  7 50 15 17 58 91 14 13 53 91  3 79 99  6 53 53 93 23 92 39 50 41 57 81 32 16 50 25 27 53 48 94 31 70 66 20 48 24  7 23 11  9 78
75 67  3 31 75  1 29 75 41 77 52  0  8 49 86 92 15 75 97 25 91 37 11 11 97 12 20  9  3 65  1 78 61 51 84 74 31  6 44 68  0 67 53 70 58 40  2 46 53 87 56 79 30 26 67 72 31 49 61 20 45 22 47 80 90 14 87 41 50 47 66 65 82  2 17 73 22 48 67 61 29  3 64 37 64 48 79 28 60 90  2 98 13 50 12 21 76 34 16  0
65 60 31 48 75 29 75 64 51 86 69 36 41 37 77 70 69 31 85 73 46 99 20 73  1 76 39 15 59 48 66 54 98  3 52 47 81 12 98 75 59 50 28 72 51 12 62 66 34  5 40 68 42 22 49 77 52 96  5 84 84 90 94 61 99 82 38 56  5 84 92 36  5 54 22 57 17 41 13 20 63 32 71 22 75 69 10 67  1 29 85 18 77 33 47  9 88 55 91 23
10 13 59 46 98 32 75 61 66 80  7  2  7 54 68 99 12 86 21 67  1 79 13 17 51 17 70 20 43 80 38 30 64 18 75 18 52 11 27 75 50 71 11 83 52  2 35  2 51  7 52  8 41 94 49 48 18 18 95 12 42 98 68 21 76 76 41 11 52 36 77 82 93 43 32 10 40 76 35 67 48  0 96 69 98 81 56 23 67 11 45 66 66 95 15 14 64 90  4 38
44 64 78 80 78 95 36 88 74 90 50 19 75 57 32  0 92 78 10 53 70 36 38  4 53 67  1 78 28 82 23 29 86  8 34 35 88 73 52 57 53 22 93 65 60 85 74 78 84 69 81 11 80 10 93  2 61 28 34 61 81 54 49 13 85  6 18 64 21 25 21  3  7 55 26 28 12 55 76 71 76 79 87 12 58 18  0 69 37 71 82 87 50 45 45 19 16 47 26 77
20 98  4 97 25 76 45 50 86  4  8 65  8 80 40 33 56 62 94  2 24 80 84 87 44 19 11 23 32 71 12 47 97 22  6 21 12 36 46 59  6 33 36 68 42 97 22 92 50 70 81 37 14 32 23 43 96 68 99 37 27  4 91 65 66 71 58  5  9 27 18 15 23 68 50 64 37 46 95 77 85 49 66 80 20 31 75 31 73 82 54 29 88 71 25 61 80  5  8 14
26 53 83 78 42 81 75 12 68 66 97 88 95 96 81 57 46  6  6 97 73 24 13 60 58 63 72 30 45 69 87  7 20 66 10 25 63 58  7 62  5  9 80 91 34 48 89 32 47 77 37 73  6  1 26 69 94 81 74 20 42 48  8 65 80 69 10 68  7 22 83  6 34 47 67 80 98 73 79 10 19 73 67  8 25 18 49 74 94 28 55 32 53 11 57 99 91 83 32 28
14 21 16  4  8 75 86 58  4 17 61  1 35 79 79 64 92 57 69 63 29 29 43 25 56 36 74 55 67 35 61 48 10 10 89  1 49  9 89 54 37 69 31 94 89 31  5 27 82 22 81 12 31 38 71 83 66 35 66 33 15  7 10 82 70 80 53 53 88 92 69  0 43 47 12 78 14 67 72 19 36 68 13 51 59  7 37 95 94  4 20 40 56 47 65 71 70 64 63 61
35 59 48 81 29 43 37 88 70 70 63 71 87 66 83 29 67  8 59 79 97 78 27 47  3 18  0  0  7 22 67 87 11 67 25 75 64 63 26  1 92 24 31 94 10 27 47 27 18 11  2 64 97 64 30 27 56 39 90 99 46 27 15 78 23 24 32 24 33 81 60 63 36 87 25 17 29 30 95 76 51 49 79 11 42 90 95 32 44 82 21 54 29 13 11  5 34 18 33 24
98 96 40 10 24 38 75 12 85  9 88  1 55 86 62 64 82 79 62 49 37 15 60 57 63 14 21 96 97 30 46  2 87 45 84 99 70 57 19 99 80 53 40 18 79 54 11 20 35 82 77 52 65  0 55 84 92 23 26 98 73  4 47 43 38  0 71 42 74 32 71 20 28 40 69 69 77 93 79 75 29 60 98 95 24 27 26 85 35 33 14  3  6 62 37 41 63 65 41 91
96 79 26 19 37 90 72 40 41 39 60 55 52  3 63 39 12 55 95 24 72 67  8 84 82 80 62 11  2  0 43 84 90 35 16 94 23 37 83 75 95 74 52  4 78 76 42 54 25 24 31 51 97 29 87 22 19 10 69 64 43 47 79 81 50 30 35 85 48 34 11 29  1 98 10 96 68 49 11 65 54 96 69 33 89  4 32 14  7 16 59 77 50 81 89 92 78  9 55 52
10 63 49 46 89 43 55 47 38 60 26  3 35 45 11 65 87 71  5 61 44 67 63 83 33 12  1 22 17 55 51 64 27 26 52 40 95 50 51 82  6 70 41  5 84 34 22 17 48 74 78 34 98  0 25 62 85 43 46 66  0 69 80 40 78 19 66 75 70 71 67 49 58 48 97 36 98 36 15 99 32 75 12 15 62 34 52 15 43 25 45 70 80 29  5 24 80  1 78 11
55 16 61 41 66 41 54 74 90  4 69 33 28 25 93 39 34 61 25  4 17 99 32 43 18  6 99 40 78 52 33 41 90 77 67 32 35 78 33 70 19 11 92 29 74 81 14 85 83 55 53 72 60 32 96 73 24 20 37  2 14 51 10  0 44  3 39 90 49 52 14 18 46 28 31 16 83 67 99 69 51 17 46 70  7 72 74 37 87 38 38 64 22 32 36 65 95 52 21 48
49 45 96 44 20 50 27 26 74 44 90 57 57 96 12 13  4 78 75 26 32  6 19 54 29 47 51 77 55 11 99 27 73 15 60 20 13 23 78 20 50 68 34 12  1 28 93 40  4 62 12 22 83 67 33 77 17 92 65 96 92 84 53 21 41 11 70 55 39 11 80 92 15 36 34 50 73  4 67  1 90 38 75 88 36 84 54 17 17 29 96 67 80 89  3 69 50 93 85  4
93 98 14 13 22 35 80  7 71 94 13 51 37 33 94 95 72 37 55 11 79 87 55 23 88 51 73 83 25 22 37 14  6 98 14 71 48 39 89 57 61 58 95 23 36 44 85 86 68 83 14 46 95 10 55 81 56 44 72 34 26  0 37 17 67 22 92 40 10 32 21 58 97 60 28 26 12 90 52 52 38 54 81  6 98 46 19 47 69 86 95 19 90 19 45 98 82 66 71 15
13 56 29 32 59 80 73 25 73 86 73 98 32 33 90 66 21 65 83 25 29 24 17 34 94 47  0 70 83 56 90 88 33 30 87 36  1 70 40 71 80 99 84 70 95 61 33 42 81 62 82 19 41 74 73 78 69 74 55 72 47 30  2 70 76 70 57 17 92 91 41 51 19 58 65 13 60 56 23 61 83 23 80 12 11  4 97 38 91  4 85 44 63 67 57 96 63 84 44  6
 6 14 53 70  3 97 52 17  0 62 25 93 23  7 44 10 35 52 38 74 41 79 52 53 55 54 76 63 43 19 39 33 21 98  0 40  7 82 37 17 63 50 66 23 61 49 73 80 45 12 93 30 55 94 69 90 40 67  6 43 51 20 94 61 73 42 64  0 20 44 34 80 35 29 17 51 77 56 60 77 75 79  5 62 24 58 33 49  9 70 72 11 20 88 41 40 77 68 36 76
19 31 90 45  8 91 36 91 41 86 45 38 48 92 68 96 98  4 11 66 25 38 12 92 10 13 31 97  0 11 60 52 92 10 11 53 44 18 79 93  8 32 77 32 34  8 86 95 25 42 73 67 10 92 45  2  3 53 70 38 21 50 42 53 40 73 25 67 89 45 64 35 68 45 29 99  7 78 14 29 95 68 65 64 83 46  1 12 38 92 14 23  1 98 52 71 32  0  3 35
59 62 99 26 20  2 48 79 51 13 84 99 81 16 23 31 68 59 66 48 81 59 63 73 15 90 31 95 15 84 87 79 77 31 76 10 23 23 60 51 81 75 84 66 19 20 28 25 66 42 39 70 71 57 12 85 99 25 72 51 19 98 72 86 78  2 35 41 71 24 79 80 74 20  6 67 87 92 23 99 61 28 92  0 43 65 67 95 11 30 90 30 97  8 92 31 16 54 12 98
17 70 96 90 16 18 83 49 61 33 54 92 86 67 96 63 70 62 77  6 93 76 79 51 81 61 12 14 84 15  0 35 79 90 58 77 68 40 15 92 32 64 26 84 32 85  7 72  4  2 88 38 40  1 88 67  1  7 97 22 96 41 28 16 98 93 12 58 78 90 43 75 16 19 71  7 46 59  1 51 36 98 48 80 57 82 34 97 66 63 33 28 17 10 34 20 61 43 29 58
13 43 58 10 69 99 42  7 62 23 63 97  0 88 84 84 67 65 83 23 76 24 91 54 42 49 88 92 45 83 14 27 70  5 93  8  0 63 30 91 67 27 42 53 13 18  2 20 24 77  8 93 79 20 44 78 13 59 10 48 10 10 29 52  1 93 64  2  6 34 98  3 13 87 67 17 95 43 54 72 39 29 29 28 37 20 82 52 46 48 38 28 32 11 62 10 85 62 85 48
81 25 96 99 28 60 48  2 22  9 47 14 48  0  0 13 79 81 23  2 88 97 56 28 58 68 56 22 91  0 61 47 91 18 45  3 14 43 74 59 43 77 21 68 79 79 55 28 29 45 91 43 79 75 68 82 52 65 89 22 29  2 55 31 53  4  4 43 85 96 59 50 34 90 51 77 70 27  4 65 45 87 91 94 73 24 55 92 61 81 39 30 55 60 60 22 89 37 55 25
98 73 67 83 86 77 69 81  3 28 52 57  7  0 17 68 34 25 27 59 48 58 60  7 98 27 31 51 25 91 63 79 14 41 68 84 11 24 50 23 32 91 97 88 98 45 23 25 55 10 49 91 57 10 85 46 85 76 60 50 24 37 38 50 90 20  3 32 60 88 68 78 56 18 33 87 48 34 90 92 49 11 75  9 35 25  6 12 83 46 18 24 71 90 91 58 10 30 51 76
 9 27 18 44 62 94 37  3 65 38  1 66 25 45 86 31 80 83 25 75 19 74 78 70  8 44 95  0 60 72 82 70 12 55 51 44 38 19 37 19 20 58 71  6 92 98 99 52 45 97 21 57 94 38 13 72  9  8 60 91 75 41 97 36  8 98 87 45 81 62 40 91 46  3 63  3 57  5 62 54 98 64 24 58 26 93  8 67 29 54 36 77 88 35 93 79 86 91 25 64
16 64 27 21 16 85  1 58 98 86 89 89 20 81 15 31 97 86 45 21 72  7 65 17 96 98 58 83 44 43 49 22 63 36 65 70 38 87 96 43 85 47 59 24 64 91 36 52 17 86 85 19 95 39 16 19 25 27 82  4  5 86 69 77 92 96 17  1 68  3 21 46 43 70 39 17 89 74 69 26  4  9 83  7 92 32 47 26 31 95 98 43 75 74 78 21  0 16 42 37
98 80 66 12 70 86 95 60 93 39 77  2 53 75 70 92 95 75 75 21 42 11 54 79 14 65 90 49 15 59  0 61 79 13  2 46 39 59 92 20 24 38 23 96 34  6 35 48 85 80 63 36 94 18 87 80 61 74 77 68 18 52 17 19 64 22 87 32 92 80 30 53 41 37 24 56 24 60 18 64 41 68 62  7 60 59  4 49  7 75 85  0  2  7 87 21 70 40 90 86
94  8 24 23 20  5 19 88 98 22 38 38 33 96 75 39 12 81  9 20  3 37 75 76 45 96 21 82 32 19 37  2 61 82 57 52 65 55 76 79 32 71 36 63 74 26 24 48 82 46 97 80 45 54 23 41 72 48 33 62 84 13 72 27 79 86 22 16 95 96 61 28 37 73 42 36 97  7 98 26 69 77 41 34 39 88 77  5 81 95 63 43  1  1 40 63 47 43 50 88
51 32 86 64 37 79 34 34 25 87 78 96 25 79 26 53 26 31 69 21 73 70  9 15 74 27 22 89 55 74  5 92 58 97 39  9 58 17  0 53 69 65 29 28 49 98 88 11 52 85 63 77 92 52  7 56 22 30 83 85 82 14 55 30 13 90 49 52 52 58 52  7 84 42 85 95 42 13 43 21 77 21 11 26 87 17 54 53 45 12 96 83 82 51 79 37 98 21 83 54
23 85 85 86 34 51 83 95 19 27 51 11 53 99 95 99 53  6 65 18 64 61 40 30 31 74 85 91 93 26 81 66 36 24 72 80 67 54 44 23 72 97 22 22 18 66 42 41 84  4 49 16 98 40 42 23 11  9 68  3 82 77 55 52 17  2 91 69 21  3 67 43 69 20  3  9 15 65 47 78 63 61 65 84 81 80 14 47 69 13 61  6 77 66  2 42 44 34 63 53
65 35 64 45 86 18 25 88 58 67 37  5 45 72 50 96 47 60 70 56 25 54 38 86 50 12 22 16 51  0 88 90  4 38 25  4 67 62 15 35 92 97  6 39 62 85 51 59  8 72 21 99 17 13 87 94 47 30 58 18  6 43 89 99 12 85 13 47 66  1 55 35 59 35 64 70 68 58 32 49 49 46 20 21 14 41 98 50 24 18 83 86 36 33 13  0  8 75  9 13
43 35 69 51 10 33 54 63 32 24 80 33 18 98 13 81 65 64 84 78 47 92 85 25 19 96 49 52 80 84 67 10  1 73 37 69 11 97 26 69 87 91 29  8 49  8 85 92  6 86 82 63 79 95 62 81 85 42 55 55 62 62 86  4 47 77 87 36 15 77 26 21 94 67  7 93 17 37 82 97 33 74 94 88  4 15 41 72 85 66 64 42 85  3  6 27 11 65 36 34
 1 28 30 10 40 96 37 19  6 48 82 55  2 84  8 58 16 15 63  7 50  8 50 12 44 48 25 48 83 67 57 72 58 71 42 44 92 27 60 84 16 32 76 61 49 53 77  9 98 37 45 86 83 82 82 64 78 51 65 64 35 34 44 35 63 14 44 22 32 88 99 64 26 51 78 62  6 57  2 81 31 17 80 16 70 48 15 60 31 94 36 91 57 93 48 93 48 95 65 56
51 75 81 42 83 71 72 10 15 95 80 12  6 16 55 81 46 40 17 51 14 82 82 25  5 53 67 83 53 79 63 15 81 69 39 48 63 49 23 50 99 25 62 37 98 69 79 17 57 17 20  9 45 43 42 96 58 54 30  4 81 89 10 45 54  9 46 15 97  4 78 84 22 55 46  2 96 49 89  0 96 46 78 71 58 92 96 79 54 62 62 64 73 39 29 82 86 98 52 31
40 88 92 98 52 64 96  2 45  7 22 67 88  1  1 70 95 39 93 94 63  9 87 55 40  7  6 93 87 72 15 98  7 73 47 51 63 73 98  2 55 45 91 15 27  4 82 31 80 60 79 28 52 13 83 12 74 89 82 57 81 86 94 57 14 37 87 41 32 85 54 32 30 82 97 62 54 24 74 93 85 28 62 54 33 27 81 77 58 42 16  0 30 12 97 58 78 20 17 53
 6 89  8 23  7 84 33 38 39 33 27 91 70 10  8 90 45  2 19 42 17 19 61 56 35 13 86 21 95 53 81 93 82 60 86 46 43 55 11 16 11 98 62 17 12 72 85 82 34 53 63 99 60 36 22 63 62 32 78  0 40 97 31 67  2 17 21 56 66 44 35 70 98 85 78 63 48 43 48 54 91 54 83  6 59 56 98 41 10 67 53  4 67 48 69 79  1 66 96 91
16 90  0 15 15 87 80 71 89 13 34 41 78 28 48 18 57 33 16 15 19 83 59  3 25 15 54 38 74 65 28 92 54 53 56 15 69 11 46 30 72 31 97 12 77 91 15  9 53 44 99 34  1  0 62 54 26 60 47 67 58 77 19 28 27 33 19 12  1 79 82 76  2 52 86 97 10 97 49 78 11 97 78  1 79 42 37 85 31 19 67 50 14 40 53 76 89 49  7 75
27 41 42 71 81 17  1 55 92 39 64 45 50 24 34 91 86 62 55 92 44 78 95 52 28 26  1  1 40 89 82 21 16  1 22  4 54 72 97 70 91 16 79 86 82 82 47 89 24 34 95 70  6  0  1 46 76 79 53 87 61 70 89 32 76 89 32 10 13 74 46 29 17 63 99 88 17 68 24 41 72 86 35 25 66 15 50 25 15  5 27 49  8 25 41  1 70 80 76 19
72 29 54 26 40 25 10 96 16 90 46 89 36 89 40 25 65 97 70 46 49 86 57 37 34 80 48 25 20 44 72 23 56  1 88 88 17 65  3 24 71 11 97 44 84 90 48 63  6 44 57 36 40 35 92 36 74 86 24 18 65 74 68 80 44 94 53 25 11 14 95 39  8 10 86 41 21 92 81 93 57 11 75 26 15  0 39 43 70 38 13  7 56 16 76 68  5 55 16  4
44 55 44 29 88 29 23 86 25 85 20 14 71  2  6 96 84 77 42  5 95  5 50 96 15 18 94 67 12 58 60 66 15 21 81 33 39 13 44 84  3 41 54 95 21  8 64 72 14 15 65 57 16 29 20 53 71 39 42 56  4 58 94 88 32 50 11 63 67 61 94 23 41 58 38  7 46 45 99 71 87  2 96 49 94 49 57 60 12 13 69 28 20 84 79 34 85 23 15 81
41 85 90 68 73 37 17 92 89 77 38  8 35 39 44 99 70 10 26 16 80 51 84  0 97 29 42 92 13 25  5 86 51  1 51 21 18 34 49 45 99 58 15 85 58 85  8 40 11 69 17 10 53 91  6 39 20 35 90 60 10 40 91  5 58 37  8 69 20 38 83 58 31 33 42  5 77 33 97 96  3 82  6 57 68  7 94 53 96 30 87 80 14 45 32 44 98 48 93 74
39 93 55 20 35 92 37 11 42 96 13 14 57 58 28 22 64 65 70 77  8 24 48 93 28  4 92 53 45 46  5 51 24 62 53  1 76 80 25 78 91 61  7 27 37 70 24 35 10 80 64 26  6 88 14 32 57 36 13 96 83 76  8 90 94 56 43  0 45 74 27 34 92 25 10 32 23 28 23 98 34 41 93 15 50 71 99 92  6  7 19 18 24 91  0 97 76 27 76 19
68 21 83 92 38 13 10 92 26 57 16  3 33 86 10 62 58 82 82 63 84 60 77 53 15 71 83 66 51 29 47 54 85 46 69 98 18  2 27 40  2 57 55 19 52 91 48 33 76 52  2 40 51 88 81  1 70 10  2  4 45 30 15 42 70 33 97 36 59 12 88 33 50 36 41 56 32 57 65  2 28 24 36 18 51  6 57 10 82 47 21 76 23  8 66 63 51 88 94 20
72 90 17 57 36 36 57 75 67 99 56 14  8 69  9  9 80 35 45 81 70 31 48 69 49 37  7 17 36 96 86 91 74  1 50 72 43 37 59 76 12 52 74 88 35 87 49  2  3 40  9 26 83 81 43  4 38 99 86 41 41 69 42  2 48 35 53 18 69 21 42 88 70 82  2 82  6 57 15 29  0 61 23 41 49 71 23 16 12 25 56 10  3 14 17  5 91 23 80 80
37 68 54 63 78 58 23 39 45 84 59 30  6 11 59 47 55 95 27 97 32 19 43  9 11 81 36 30 20 36 81  3 42 62  8 12 21 94 45 85 87 68 29 91 61 80 27 49 67  6 13 45 52 58 17 74 52 58 71 98 48 27 80 90  0 83 48 48 99 41 56 91 14 15 80 24 24 66 76 36 74 43 47 29 43 78 97 69 48 93 72 14 32 57  9  5 20 81  5 71
 0 14 39 18 36  9 95 19 79 33  7 71 94 11 57 78 76 24 93 37 62 87 69 38 79 99 70 87 30 73 89 48 99 56 19 27 55 91 76 40 64 45 52 69  5 71 72 39 80 61 92 87 45 16 17 97 85 67 59 84 97 45 83 93  2 65 89 46 35 51 12 35 71 52 93 23 64 70 88 92 84 25 32 24 29 61 43  6  2 66 25 25  1 60 69 96 32 55 53 88
95  7 35 65 18 50 26  9 66 86 40  6  1 60 80 11 52 11 99 89 16 52 68  4 67 97 19 92 16 49 92 44 60  2 48  6 71 50 68 86 85 63 42 74 21 68 16  5 26 58 84 73 60 93 62 41 96 78 35 89 99 50 18  3 83 94 59 46 46 53 84 35 87 94  2 81 81 48 75 27 65 24 46 53  4 67 42 87 22 56 12 45 70 39 18 72 88 55 70 66
97 86 42 23 79  7  7 88 84 12 90 82 56 75 64 53 31 49 12 92 58 57 64  4  0 56 32  2 37 29 70 33  7 19 35 59 20 60 65 36  9 48 24 85 50 94 75 42 94  1 64 34 14 25 49 64  9 84 17 71 48 53 80 92 79 75 77 34  2 72 72 91 75  1 25 21 48 97  4 58  8 31 33 84 98 76 29 36 41 98 16 17  0 41 95 93 91 24 77 68
17  4 18  3 58 47 95 25 68 22  9 97 24 93 42 90 11 45 71 88 98 94 24  7 30 63 14 80 89  1  1 39 65 84 92 54 24 55 50 18  1 12 37 38 28 84 73 80 98 42 51 18 12 19 66 80 93 82 35 68 34 15 76 43 14 64  4 91 93 91  5 71 17 12 58 38 80  2  5 11 81 72 24 26 62 39 89 63 93 23 98 21  4 29  8 48 99 49 76 42
77 50 37 82 63 16 64 74 52 30 20 84 92 28 86 23 27 53  4 86 30  2 24 72  6 47 42 19 33 33  1 27 63 68 33 29 74 75 14 30 35 81 50 57 84 99 14 51 77 65 22 26 35 37 59 83 24 86 35 25 28 13 64 80 25 15 78 67  1 58 78 20  5 62 39 41 94 16  5 30  8 86 54 91 54 48 25 95 63 85  9  9 61 18 13 67 98 30 69 97
48 21 42 61 68 66 68 81 87 73  9 23 97 31 35 86 27 84 54 31 73 20  1 81 70 67 89 28 31 28 61 69 58 90 93 80 70  1 26  2 76 84 56 68 63 84 28 76 68 77 71 94  1  1 63 30 71 19 42  4 84 20 60 62 29 43 32 72 43 13 13 57  7 85  0 14 69 39  2 88 66 29 21 11 54 57 73 43 95 61 76  0 61 95 58 57 46 24 81 67
52 97 45 30 36 73 30 39 65 59 53 23 15 88  9 85 45 29 98 16 18 75 35 20  6 32 75 56 40 48 54 82 32  2 85  0  1 27  9 76 83 43 29 70 62 15 52 48 20 15 94 53 69 55 25 52 12 44 74 45 35 44 11  1 93 59 44 29 86 39 67 53 59 69 18 37 35 25 12 60 91 63 85 61 50  9 95 19 96 55 59 35 54 16 61 15 64 89 28 15
94  2 41 51 85 36 44 93 50 30 85 96 42  0 89 92 89 24 19  2 49 93 46 92 73 13 62 12 72 32 72 57 96 73 58 96 86 75 48 95 15 37 50 90  3 30 86 67  0 70 83  8 32 17  2 99 51 46 33 86 91 32 98 93 95 54 85  8 62 31 68 99 22 84 64 51 44 84 65 46 60 37 81 93 12 65 52 70 19 51 22 28 30 53  7 96 14 10 49 68
22  9 18 21 97 27 61 51 18 33 97 67 24 79 95 15 82 72 80 51 78 38 77 28  9  2 44 95 27 86 38 74 37 13 78 64 88 45 48 19 38 18 88 95 90 95 27  5 57 98  4 32 28 77 49 85 20 25 62 62 36 17 22 85 88 42 10 34 70 25 22 22 47 21 34  1 56 23 85 46  9 71  5 15 22 73 87 95 60 39  8 64 33 34 13 67 36 65 23 22
96 93 87 62  3 54 43 17 86 91 62 71 11 83 67 14 87 40 94 24  0 79 37 47 33 47 48 63  0 73 86 15 30 38 31  9 68 25  3 18 47  7 56 77 70 81 57 38 60 90 37 92 20 51 19 69 97 79 59 21 93 29  2 28 92 24 31 26 86  7 11 19 35  0 27 60 19 41 85 83 88 70 76 82 40 85 48 38 24 52 18 57 53 28  8 93 15 80 24 66
83 35 79 78 46 66 91 39 31 29 30 32 62 70 79 58 60 77 23 78 89 68 63 85 65 83 81 50 41  2 14 93 75 99 48 14 81  1 52 46 25 89 37 26 79 98 72 31 66 74 23 90 92 30 48 15 27  7 57 92 46 65 18 22 79 10 39 42 31 51 65 73 88 67 87 81 41 39 81  3 42  4 44 12 85 67  4 35 86 21 80 47 70 38 52 94 68 45 96 79
 1 77 19 48 19 30 22 14 13 44  4 16 15 41 45 39 74 30 78 30 70 54 23 37 77 22 53 89 56  0 80 11 80 19 24  4 82 92 19 26 49 81  2 61 66 19 19 43 21 39 65  3 25  1 23 30 92  5 65 30 69 49 99 71  7 57 91 88 43 29 31 50 42 18 92 94 21 98 14 17 37 63 35  3 62 86  8 26 20  6 69 55 66 36 54 68 70 92 44 14
99 80 75 87 47 85 51  5 94 26 63  8 24 36 86 20 28 17 46 26 15 97  7 49 13 79 27  7 25 56 16 31  8 13 59  9 46 36 51 10 63 97 31 84 97 92 99 58 76 22 71 27 20 83 89 79 52 97 79 35 85 37 98 73 82 89 25 95 49 56 71 61  3 91 13 52 31 82 34 26 15 64 22 41 94 66 63 83 45 48 35 68 24 30 90 48 70 19 45 10
93 13 79 91 20 83 37 95 48 50 72 87 58 89 26 73 54 87 92 74 39 26 84 31 65 68 86 50  0 28  7 97 48 67 48 18 78  3 47 11 23 92 48 92 44 64 19 83 73 65 16 99 70 76 15 95 48 48 14 13 95 59 93 50 11 77 44 90 50 60 26 25 97 24 66 65 87 14 19 12 41 96  0 27 60 40 69 21 53 36 32 38 92 92 72 86  2 21 52  5
80 31 17 85 45 59  9 63 67  0 99 74  2 58 19 16 61 77 41 77 75 80 64 73 19 28 34 27 39 10 27 18 81 10 96 15 70 76 96 97 77 32 70 30 50 20 19 76 17  3 40 31 14 91 78 32 45 45 76 45 42 12 13  4 13 79 48 20 56 90 48 31 86 54 23 98 76 47 24 14 24 89 75 93 83 40 28 67 76 49 17 23 98  6 25 56 65 15 39 57
 4 19 74 84 32 58 90 36 39 23  4 98  2 95 90 52 75 97 61  9 46 25  3 37  5 83 24 26 33 28 10  9 97  1 26 13 89 98 78 63 96 77 51  6 13 38 68 41 43  3 13 90 63 89 65 70 25 68 45  2 61 78 70 55 92 43 86 39 50 10 86  4 32 94 39 87 64 59 91 54 86 21 77 20 98  8 56 27 35 14 89  1 37 30 74 54 64 79 86 76
 4 43 38 56 10 95 93 22 46 91 65 50 78 54 21 42 88  8 71 18 13 51 77 24 87 50 78 58 66 61 25  2 39 85 21 79 68 43  2 39 64 73 48 57 75 17 19 72 23 22 16 82 14 89 22 80 31 49 85 35 83 16 97 92 37 28 83  6  6 85 68  9 49 51 41 19 65 33 46 73 76 82 22 30 75 90 35 93 80 59 80 85 24 76 50 25 78 94  0 78
42 55 25  8 55 61 88  4 69 78 31 15 81 34 40 67 98 38 94  6 32 45 42 77  6 51 49 20 20 51 78  5 78 43 22 14 82 76 68 22 33 98 20 81 51 11 61 64 21 27 33  5 46 80 43 87 31 16 28 69  3 37 58 88 93  7 24 70 66 64 26 18 67 29 86  9 32 86 31 53 51 31 85  5 96 14 62 51 17 36 43 28 81 15 48  9 19  1 14 67
