361	0	0	0	0	0	0	0	0	0	0	0	0	0	0	0	0	0	0	0	0	0	0	0	0	0	0	0	0	0	0	0	0	0	0	0	0	0	0	0	0	0	0	0	0	0	0	0	0	0	0	0	0	0	0	0	0	0	0	0	0	0	0	0	0	0	0	0	0	0	0	0	0	0	0	0	0	0	0	0	0	0	0	0	0	0	0	0	0	0	0	0	0	0	0	0	0	0	0	0	
4888	7225	0	0	0	0	0	0	0	0	0	0	0	0	0	0	0	0	0	0	0	0	0	0	0	0	0	0	0	0	0	0	0	0	0	0	0	0	0	0	0	0	0	0	0	0	0	0	0	0	0	0	0	0	0	0	0	0	0	0	0	0	0	0	0	0	0	0	0	0	0	0	0	0	0	0	0	0	0	0	0	0	0	0	0	0	0	0	0	0	0	0	0	0	0	0	0	0	0	0	
6432	9200	225	0	0	0	0	0	0	0	0	0	0	0	0	0	0	0	0	0	0	0	0	0	0	0	0	0	0	0	0	0	0	0	0	0	0	0	0	0	0	0	0	0	0	0	0	0	0	0	0	0	0	0	0	0	0	0	0	0	0	0	0	0	0	0	0	0	0	0	0	0	0	0	0	0	0	0	0	0	0	0	0	0	0	0	0	0	0	0	0	0	0	0	0	0	0	0	0	0	
9457	14890	1800	81	0	0	0	0	0	0	0	0	0	0	0	0	0	0	0	0	0	0	0	0	0	0	0	0	0	0	0	0	0	0	0	0	0	0	0	0	0	0	0	0	0	0	0	0	0	0	0	0	0	0	0	0	0	0	0	0	0	0	0	0	0	0	0	0	0	0	0	0	0	0	0	0	0	0	0	0	0	0	0	0	0	0	0	0	0	0	0	0	0	0	0	0	0	0	0	0	
9624	22455	11439	7200	7569	0	0	0	0	0	0	0	0	0	0	0	0	0	0	0	0	0	0	0	0	0	0	0	0	0	0	0	0	0	0	0	0	0	0	0	0	0	0	0	0	0	0	0	0	0	0	0	0	0	0	0	0	0	0	0	0	0	0	0	0	0	0	0	0	0	0	0	0	0	0	0	0	0	0	0	0	0	0	0	0	0	0	0	0	0	0	0	0	0	0	0	0	0	0	0	
14474	17087	12765	7725	10863	4356	0	0	0	0	0	0	0	0	0	0	0	0	0	0	0	0	0	0	0	0	0	0	0	0	0	0	0	0	0	0	0	0	0	0	0	0	0	0	0	0	0	0	0	0	0	0	0	0	0	0	0	0	0	0	0	0	0	0	0	0	0	0	0	0	0	0	0	0	0	0	0	0	0	0	0	0	0	0	0	0	0	0	0	0	0	0	0	0	0	0	0	0	0	0	
14993	27724	12750	6224	5834	498	289	0	0	0	0	0	0	0	0	0	0	0	0	0	0	0	0	0	0	0	0	0	0	0	0	0	0	0	0	0	0	0	0	0	0	0	0	0	0	0	0	0	0	0	0	0	0	0	0	0	0	0	0	0	0	0	0	0	0	0	0	0	0	0	0	0	0	0	0	0	0	0	0	0	0	0	0	0	0	0	0	0	0	0	0	0	0	0	0	0	0	0	0	0	
19451	32479	17837	13198	11688	670	1440	6241	0	0	0	0	0	0	0	0	0	0	0	0	0	0	0	0	0	0	0	0	0	0	0	0	0	0	0	0	0	0	0	0	0	0	0	0	0	0	0	0	0	0	0	0	0	0	0	0	0	0	0	0	0	0	0	0	0	0	0	0	0	0	0	0	0	0	0	0	0	0	0	0	0	0	0	0	0	0	0	0	0	0	0	0	0	0	0	0	0	0	0	0	
20901	28376	24821	15931	12679	4654	3250	5655	64	0	0	0	0	0	0	0	0	0	0	0	0	0	0	0	0	0	0	0	0	0	0	0	0	0	0	0	0	0	0	0	0	0	0	0	0	0	0	0	0	0	0	0	0	0	0	0	0	0	0	0	0	0	0	0	0	0	0	0	0	0	0	0	0	0	0	0	0	0	0	0	0	0	0	0	0	0	0	0	0	0	0	0	0	0	0	0	0	0	0	0	
22967	29932	29223	24550	20181	13120	12014	4285	4661	5041	0	0	0	0	0	0	0	0	0	0	0	0	0	0	0	0	0	0	0	0	0	0	0	0	0	0	0	0	0	0	0	0	0	0	0	0	0	0	0	0	0	0	0	0	0	0	0	0	0	0	0	0	0	0	0	0	0	0	0	0	0	0	0	0	0	0	0	0	0	0	0	0	0	0	0	0	0	0	0	0	0	0	0	0	0	0	0	0	0	0	
31049	48636	37993	35705	33464	15592	16338	17439	7719	9591	4624	0	0	0	0	0	0	0	0	0	0	0	0	0	0	0	0	0	0	0	0	0	0	0	0	0	0	0	0	0	0	0	0	0	0	0	0	0	0	0	0	0	0	0	0	0	0	0	0	0	0	0	0	0	0	0	0	0	0	0	0	0	0	0	0	0	0	0	0	0	0	0	0	0	0	0	0	0	0	0	0	0	0	0	0	0	0	0	0	0	
20128	33341	24768	31315	24367	14755	15957	27813	12125	6666	11562	5329	0	0	0	0	0	0	0	0	0	0	0	0	0	0	0	0	0	0	0	0	0	0	0	0	0	0	0	0	0	0	0	0	0	0	0	0	0	0	0	0	0	0	0	0	0	0	0	0	0	0	0	0	0	0	0	0	0	0	0	0	0	0	0	0	0	0	0	0	0	0	0	0	0	0	0	0	0	0	0	0	0	0	0	0	0	0	0	0	
32404	42372	40124	36130	34531	24224	15662	23721	17701	16222	15720	11172	3600	0	0	0	0	0	0	0	0	0	0	0	0	0	0	0	0	0	0	0	0	0	0	0	0	0	0	0	0	0	0	0	0	0	0	0	0	0	0	0	0	0	0	0	0	0	0	0	0	0	0	0	0	0	0	0	0	0	0	0	0	0	0	0	0	0	0	0	0	0	0	0	0	0	0	0	0	0	0	0	0	0	0	0	0	0	0	0	
31396	38674	30788	30222	22401	15671	10769	19308	10940	3572	8364	8736	1078	289	0	0	0	0	0	0	0	0	0	0	0	0	0	0	0	0	0	0	0	0	0	0	0	0	0	0	0	0	0	0	0	0	0	0	0	0	0	0	0	0	0	0	0	0	0	0	0	0	0	0	0	0	0	0	0	0	0	0	0	0	0	0	0	0	0	0	0	0	0	0	0	0	0	0	0	0	0	0	0	0	0	0	0	0	0	0	
29199	38405	40751	42245	28183	30224	26278	28534	22022	17289	21545	19712	13478	1568	6561	0	0	0	0	0	0	0	0	0	0	0	0	0	0	0	0	0	0	0	0	0	0	0	0	0	0	0	0	0	0	0	0	0	0	0	0	0	0	0	0	0	0	0	0	0	0	0	0	0	0	0	0	0	0	0	0	0	0	0	0	0	0	0	0	0	0	0	0	0	0	0	0	0	0	0	0	0	0	0	0	0	0	0	0	0	
28793	41989	37365	38114	25417	24835	25218	29695	22850	19286	23635	14200	14120	1672	11704	5041	0	0	0	0	0	0	0	0	0	0	0	0	0	0	0	0	0	0	0	0	0	0	0	0	0	0	0	0	0	0	0	0	0	0	0	0	0	0	0	0	0	0	0	0	0	0	0	0	0	0	0	0	0	0	0	0	0	0	0	0	0	0	0	0	0	0	0	0	0	0	0	0	0	0	0	0	0	0	0	0	0	0	0	0	
32769	48334	35371	40893	25340	25758	30361	32973	29419	14534	25765	18276	12318	3915	14922	5778	1296	0	0	0	0	0	0	0	0	0	0	0	0	0	0	0	0	0	0	0	0	0	0	0	0	0	0	0	0	0	0	0	0	0	0	0	0	0	0	0	0	0	0	0	0	0	0	0	0	0	0	0	0	0	0	0	0	0	0	0	0	0	0	0	0	0	0	0	0	0	0	0	0	0	0	0	0	0	0	0	0	0	0	0	
54059	62023	63219	61621	46466	37359	34158	40310	30825	26462	29470	21739	13887	7664	16022	15501	2576	5776	0	0	0	0	0	0	0	0	0	0	0	0	0	0	0	0	0	0	0	0	0	0	0	0	0	0	0	0	0	0	0	0	0	0	0	0	0	0	0	0	0	0	0	0	0	0	0	0	0	0	0	0	0	0	0	0	0	0	0	0	0	0	0	0	0	0	0	0	0	0	0	0	0	0	0	0	0	0	0	0	0	0	
35441	39788	43496	47326	29441	37624	32167	33746	28115	22632	29405	25107	20627	8368	17751	12658	2339	6206	961	0	0	0	0	0	0	0	0	0	0	0	0	0	0	0	0	0	0	0	0	0	0	0	0	0	0	0	0	0	0	0	0	0	0	0	0	0	0	0	0	0	0	0	0	0	0	0	0	0	0	0	0	0	0	0	0	0	0	0	0	0	0	0	0	0	0	0	0	0	0	0	0	0	0	0	0	0	0	0	0	0	
53058	56676	60208	56710	42442	34180	35234	35426	35447	25560	32526	24564	16531	13040	27488	20318	8714	10320	1628	1849	0	0	0	0	0	0	0	0	0	0	0	0	0	0	0	0	0	0	0	0	0	0	0	0	0	0	0	0	0	0	0	0	0	0	0	0	0	0	0	0	0	0	0	0	0	0	0	0	0	0	0	0	0	0	0	0	0	0	0	0	0	0	0	0	0	0	0	0	0	0	0	0	0	0	0	0	0	0	0	0	
46682	49629	55236	60308	47278	41359	31979	36439	25140	28954	25830	24704	17106	11699	18943	17308	9143	11887	3564	5376	441	0	0	0	0	0	0	0	0	0	0	0	0	0	0	0	0	0	0	0	0	0	0	0	0	0	0	0	0	0	0	0	0	0	0	0	0	0	0	0	0	0	0	0	0	0	0	0	0	0	0	0	0	0	0	0	0	0	0	0	0	0	0	0	0	0	0	0	0	0	0	0	0	0	0	0	0	0	0	0	
47594	58770	62577	68372	55930	50258	39757	49863	42634	37627	44486	31792	28390	13914	25261	19234	6827	10458	4730	7242	1792	121	0	0	0	0	0	0	0	0	0	0	0	0	0	0	0	0	0	0	0	0	0	0	0	0	0	0	0	0	0	0	0	0	0	0	0	0	0	0	0	0	0	0	0	0	0	0	0	0	0	0	0	0	0	0	0	0	0	0	0	0	0	0	0	0	0	0	0	0	0	0	0	0	0	0	0	0	0	0	
36200	31989	32910	38729	27940	31315	24652	27408	19934	17493	19638	18425	13277	16294	14792	19639	7185	16173	4625	4535	1973	172	1024	0	0	0	0	0	0	0	0	0	0	0	0	0	0	0	0	0	0	0	0	0	0	0	0	0	0	0	0	0	0	0	0	0	0	0	0	0	0	0	0	0	0	0	0	0	0	0	0	0	0	0	0	0	0	0	0	0	0	0	0	0	0	0	0	0	0	0	0	0	0	0	0	0	0	0	0	0	
51242	59043	47231	57274	42475	45236	32908	37574	42304	21570	35469	32428	27693	24021	31085	25519	12117	19495	11115	12249	5178	600	1890	100	0	0	0	0	0	0	0	0	0	0	0	0	0	0	0	0	0	0	0	0	0	0	0	0	0	0	0	0	0	0	0	0	0	0	0	0	0	0	0	0	0	0	0	0	0	0	0	0	0	0	0	0	0	0	0	0	0	0	0	0	0	0	0	0	0	0	0	0	0	0	0	0	0	0	0	0	
60666	66199	67909	68562	51978	50363	45071	56339	40842	34575	50877	39727	30680	31108	40569	34183	22154	26002	18080	19113	13627	3149	5526	6656	8836	0	0	0	0	0	0	0	0	0	0	0	0	0	0	0	0	0	0	0	0	0	0	0	0	0	0	0	0	0	0	0	0	0	0	0	0	0	0	0	0	0	0	0	0	0	0	0	0	0	0	0	0	0	0	0	0	0	0	0	0	0	0	0	0	0	0	0	0	0	0	0	0	0	0	0	
63299	59212	70668	79073	57811	59453	52111	50804	42270	38922	41056	43085	34899	34021	45723	41752	21931	30489	22034	21027	15779	3797	6524	2529	945	121	0	0	0	0	0	0	0	0	0	0	0	0	0	0	0	0	0	0	0	0	0	0	0	0	0	0	0	0	0	0	0	0	0	0	0	0	0	0	0	0	0	0	0	0	0	0	0	0	0	0	0	0	0	0	0	0	0	0	0	0	0	0	0	0	0	0	0	0	0	0	0	0	0	0	
75011	80851	79149	80855	72519	78012	59961	70076	60718	50203	59132	59588	49388	45025	52527	41238	28569	42413	30408	27892	25017	13482	14825	10291	3242	6600	9801	0	0	0	0	0	0	0	0	0	0	0	0	0	0	0	0	0	0	0	0	0	0	0	0	0	0	0	0	0	0	0	0	0	0	0	0	0	0	0	0	0	0	0	0	0	0	0	0	0	0	0	0	0	0	0	0	0	0	0	0	0	0	0	0	0	0	0	0	0	0	0	0	0	
77700	78814	79693	79804	59414	70232	55860	62897	47365	41800	58189	44606	44325	40134	46939	38615	30088	41034	24724	24884	17727	7668	15771	6370	12281	3708	10488	7225	0	0	0	0	0	0	0	0	0	0	0	0	0	0	0	0	0	0	0	0	0	0	0	0	0	0	0	0	0	0	0	0	0	0	0	0	0	0	0	0	0	0	0	0	0	0	0	0	0	0	0	0	0	0	0	0	0	0	0	0	0	0	0	0	0	0	0	0	0	0	0	0	
57350	72906	63274	63074	51038	50456	47079	43751	43036	36189	46011	33799	29273	32335	33658	34955	26234	27273	25535	24591	23473	9366	15549	12986	13794	1683	3173	1584	8281	0	0	0	0	0	0	0	0	0	0	0	0	0	0	0	0	0	0	0	0	0	0	0	0	0	0	0	0	0	0	0	0	0	0	0	0	0	0	0	0	0	0	0	0	0	0	0	0	0	0	0	0	0	0	0	0	0	0	0	0	0	0	0	0	0	0	0	0	0	0	0	
84168	95485	103944	94347	69425	82673	77973	75198	64145	56709	68052	59926	58288	50651	64015	59349	44130	51062	37120	46133	37065	19710	29834	20623	17350	7250	13370	16931	7826	8281	0	0	0	0	0	0	0	0	0	0	0	0	0	0	0	0	0	0	0	0	0	0	0	0	0	0	0	0	0	0	0	0	0	0	0	0	0	0	0	0	0	0	0	0	0	0	0	0	0	0	0	0	0	0	0	0	0	0	0	0	0	0	0	0	0	0	0	0	0	0	
72835	84493	87657	77970	64002	80824	68821	68478	68203	52875	69199	55621	54670	46858	55587	50882	37923	44796	38423	40570	34875	19288	31071	20204	17375	7034	13739	13671	11691	3159	676	0	0	0	0	0	0	0	0	0	0	0	0	0	0	0	0	0	0	0	0	0	0	0	0	0	0	0	0	0	0	0	0	0	0	0	0	0	0	0	0	0	0	0	0	0	0	0	0	0	0	0	0	0	0	0	0	0	0	0	0	0	0	0	0	0	0	0	0	0	
60069	74190	78617	67758	55738	72099	65799	72230	53373	43392	61344	48793	57661	51316	65897	54381	36247	51463	45008	45767	41182	25910	27814	24401	21113	13862	22209	16537	9852	1111	1666	5184	0	0	0	0	0	0	0	0	0	0	0	0	0	0	0	0	0	0	0	0	0	0	0	0	0	0	0	0	0	0	0	0	0	0	0	0	0	0	0	0	0	0	0	0	0	0	0	0	0	0	0	0	0	0	0	0	0	0	0	0	0	0	0	0	0	0	0	0	
72085	93738	83612	69695	57076	81953	74235	70523	71996	44591	57767	49348	57197	54692	67327	52489	42606	54535	49477	45390	45184	30398	41231	36882	20204	22632	28308	27934	23338	13347	7455	4104	6400	0	0	0	0	0	0	0	0	0	0	0	0	0	0	0	0	0	0	0	0	0	0	0	0	0	0	0	0	0	0	0	0	0	0	0	0	0	0	0	0	0	0	0	0	0	0	0	0	0	0	0	0	0	0	0	0	0	0	0	0	0	0	0	0	0	0	0	
65777	83476	81757	76315	59090	66889	55369	58463	67661	45719	59397	50585	48203	44963	61086	46038	35984	46150	49016	31272	39158	24221	32776	29428	16476	24732	32345	23055	15491	12363	10839	11268	12087	5329	0	0	0	0	0	0	0	0	0	0	0	0	0	0	0	0	0	0	0	0	0	0	0	0	0	0	0	0	0	0	0	0	0	0	0	0	0	0	0	0	0	0	0	0	0	0	0	0	0	0	0	0	0	0	0	0	0	0	0	0	0	0	0	0	0	0	
84961	92661	106630	93884	72632	78152	71011	80122	62117	58944	73059	63415	61556	48103	77808	59944	47560	55863	53918	43288	42964	29280	32687	36286	22960	25006	33397	19721	13348	9983	11367	12447	12774	9558	2025	0	0	0	0	0	0	0	0	0	0	0	0	0	0	0	0	0	0	0	0	0	0	0	0	0	0	0	0	0	0	0	0	0	0	0	0	0	0	0	0	0	0	0	0	0	0	0	0	0	0	0	0	0	0	0	0	0	0	0	0	0	0	0	0	0	
91877	98502	109672	111544	80424	95640	90059	103072	84983	69490	87797	69213	72062	54952	76064	74456	58283	72092	60086	52421	45554	36403	43103	44392	40941	30172	41886	31913	18755	12704	12758	21615	11249	19891	10287	6724	0	0	0	0	0	0	0	0	0	0	0	0	0	0	0	0	0	0	0	0	0	0	0	0	0	0	0	0	0	0	0	0	0	0	0	0	0	0	0	0	0	0	0	0	0	0	0	0	0	0	0	0	0	0	0	0	0	0	0	0	0	0	0	0	
86580	104011	102811	100889	74280	83028	79252	99735	75037	67111	78679	61953	71244	51191	66875	64249	56355	61727	54571	49201	45807	34362	38716	44071	39268	37428	50112	37232	20273	27025	18798	23751	22960	23763	13905	9525	2025	0	0	0	0	0	0	0	0	0	0	0	0	0	0	0	0	0	0	0	0	0	0	0	0	0	0	0	0	0	0	0	0	0	0	0	0	0	0	0	0	0	0	0	0	0	0	0	0	0	0	0	0	0	0	0	0	0	0	0	0	0	0	0	
88330	97749	89971	92381	70263	86748	74584	90156	82557	54615	76590	60935	67765	51446	74726	57983	55716	69233	56435	49300	44998	34380	40347	43187	33229	33772	44496	33238	19528	22720	17014	19788	19819	19218	11307	6513	2812	841	0	0	0	0	0	0	0	0	0	0	0	0	0	0	0	0	0	0	0	0	0	0	0	0	0	0	0	0	0	0	0	0	0	0	0	0	0	0	0	0	0	0	0	0	0	0	0	0	0	0	0	0	0	0	0	0	0	0	0	0	0	0	
79071	87521	80462	70618	58759	74162	59793	77713	70213	42322	67464	58499	47012	47616	52873	50489	42202	53542	45545	38573	40207	22224	39719	28545	26193	25891	34663	22198	22743	19317	15738	13064	17485	12470	9615	5215	3610	10165	6084	0	0	0	0	0	0	0	0	0	0	0	0	0	0	0	0	0	0	0	0	0	0	0	0	0	0	0	0	0	0	0	0	0	0	0	0	0	0	0	0	0	0	0	0	0	0	0	0	0	0	0	0	0	0	0	0	0	0	0	0	0	
88457	123473	114630	100771	79771	84391	86103	99097	88048	66721	87032	65536	70322	58393	75947	74376	62995	76680	60888	56286	61621	40544	50115	42857	38895	42312	64975	40645	30569	32048	23327	34329	34267	30121	20070	8680	6867	12277	13760	6724	0	0	0	0	0	0	0	0	0	0	0	0	0	0	0	0	0	0	0	0	0	0	0	0	0	0	0	0	0	0	0	0	0	0	0	0	0	0	0	0	0	0	0	0	0	0	0	0	0	0	0	0	0	0	0	0	0	0	0	0	
108329	140185	141454	114565	90631	105699	112296	116056	118861	86675	110596	96038	86819	72692	91817	87011	84036	85100	75525	68111	71105	45992	67779	52538	55299	46731	77617	52424	41751	42474	29749	39294	43933	44242	32872	23950	12719	18157	18092	9447	3481	0	0	0	0	0	0	0	0	0	0	0	0	0	0	0	0	0	0	0	0	0	0	0	0	0	0	0	0	0	0	0	0	0	0	0	0	0	0	0	0	0	0	0	0	0	0	0	0	0	0	0	0	0	0	0	0	0	0	0	
96942	114547	113850	101997	73245	103774	90530	100312	92226	59883	86811	78917	84712	65584	83084	72132	69774	77936	64407	61225	56529	36204	55302	44468	39635	40330	58536	51661	29085	33405	27614	33089	30692	32810	30798	22516	10751	14718	11093	15949	2368	7921	0	0	0	0	0	0	0	0	0	0	0	0	0	0	0	0	0	0	0	0	0	0	0	0	0	0	0	0	0	0	0	0	0	0	0	0	0	0	0	0	0	0	0	0	0	0	0	0	0	0	0	0	0	0	0	0	0	0	
88062	100555	97540	83554	76477	92898	76104	84461	85258	58175	80085	59408	59903	63559	75607	65840	61210	79284	63619	60816	51428	32951	46349	49080	36722	38290	41005	36385	38462	27067	25896	24356	33388	23630	23140	18990	7468	16394	7541	8603	6892	10595	5476	0	0	0	0	0	0	0	0	0	0	0	0	0	0	0	0	0	0	0	0	0	0	0	0	0	0	0	0	0	0	0	0	0	0	0	0	0	0	0	0	0	0	0	0	0	0	0	0	0	0	0	0	0	0	0	0	0	
102496	109751	122339	110704	81983	111671	93887	102656	88612	69750	90049	80244	80026	70388	80210	77671	74088	91104	66177	73542	74087	43442	60401	48767	41579	38729	50171	42157	36353	34148	18897	28299	29487	22208	24334	17120	9883	15756	14217	14711	3976	6652	5550	1369	0	0	0	0	0	0	0	0	0	0	0	0	0	0	0	0	0	0	0	0	0	0	0	0	0	0	0	0	0	0	0	0	0	0	0	0	0	0	0	0	0	0	0	0	0	0	0	0	0	0	0	0	0	0	0	0	
101102	119860	129755	112201	86202	93662	99457	107483	104270	72635	93492	92128	79455	71734	84407	76664	73853	86647	65062	71767	73489	50150	53329	51209	53016	38881	59804	40638	35760	33344	21484	36248	38282	37529	33847	34952	20418	26936	29435	21200	12555	7415	6438	4107	5476	0	0	0	0	0	0	0	0	0	0	0	0	0	0	0	0	0	0	0	0	0	0	0	0	0	0	0	0	0	0	0	0	0	0	0	0	0	0	0	0	0	0	0	0	0	0	0	0	0	0	0	0	0	0	0	
123689	126975	136039	134113	106158	134804	111799	120195	132330	86498	106531	95476	117578	89153	114977	94760	93792	105859	87866	85279	85550	67894	71024	71024	72464	58324	76960	63933	47745	48843	35571	48219	46019	38065	43267	40132	22902	18803	11711	25500	7102	20192	10438	11934	5070	9025	0	0	0	0	0	0	0	0	0	0	0	0	0	0	0	0	0	0	0	0	0	0	0	0	0	0	0	0	0	0	0	0	0	0	0	0	0	0	0	0	0	0	0	0	0	0	0	0	0	0	0	0	0	0	
124746	118478	123444	99455	98845	118266	104066	104599	119491	78506	98467	83380	83299	87360	102682	85332	80777	103648	71053	76012	68232	63945	66761	63676	56992	49093	67185	64449	54381	38321	30883	35202	37079	23465	28928	39890	22889	25975	23669	28759	17685	20701	9940	16947	9555	12300	3025	0	0	0	0	0	0	0	0	0	0	0	0	0	0	0	0	0	0	0	0	0	0	0	0	0	0	0	0	0	0	0	0	0	0	0	0	0	0	0	0	0	0	0	0	0	0	0	0	0	0	0	0	0	
123461	133749	136101	124328	104418	130714	118771	109168	126540	89631	101703	98730	104534	84693	106146	90323	90045	106613	86587	86825	75303	64319	73489	68651	62352	58438	78939	62809	53917	46929	42271	50832	55658	51343	48257	51706	25606	36229	35991	33047	26922	27442	11310	16072	13465	11035	8453	2704	0	0	0	0	0	0	0	0	0	0	0	0	0	0	0	0	0	0	0	0	0	0	0	0	0	0	0	0	0	0	0	0	0	0	0	0	0	0	0	0	0	0	0	0	0	0	0	0	0	0	0	0	
109886	126158	123027	111934	99180	119951	98817	114895	110635	78918	91946	82629	79615	72334	96438	75266	79040	87628	77487	78792	68892	56253	65892	60247	52903	51589	62854	51087	44097	48549	34292	37647	43853	29644	37389	34785	20122	20886	13486	15107	14054	20596	9753	16575	8167	16428	7514	2106	841	0	0	0	0	0	0	0	0	0	0	0	0	0	0	0	0	0	0	0	0	0	0	0	0	0	0	0	0	0	0	0	0	0	0	0	0	0	0	0	0	0	0	0	0	0	0	0	0	0	0	0	
123508	130429	125549	127479	104690	122728	110410	117372	115942	93104	108368	85354	89457	75171	111719	90686	83626	93910	80053	81404	70687	58131	63694	67860	60797	54932	73451	60873	48124	49234	41610	45686	59239	40144	45699	43776	28366	29918	24771	25297	23714	29847	12723	19684	13616	20496	12292	4496	2304	49	0	0	0	0	0	0	0	0	0	0	0	0	0	0	0	0	0	0	0	0	0	0	0	0	0	0	0	0	0	0	0	0	0	0	0	0	0	0	0	0	0	0	0	0	0	0	0	0	0	0	
121849	130467	136312	122859	102366	124887	114291	119077	130271	92057	106748	94556	116462	82441	109311	95605	97167	109078	93782	93799	78381	68939	82853	76843	76657	66412	76223	79765	48793	57136	47205	48485	60084	51516	49781	46044	30954	31217	24257	29001	22038	28118	14024	13522	16789	14020	9214	5062	5873	3393	1024	0	0	0	0	0	0	0	0	0	0	0	0	0	0	0	0	0	0	0	0	0	0	0	0	0	0	0	0	0	0	0	0	0	0	0	0	0	0	0	0	0	0	0	0	0	0	0	0	0	
110526	128053	128630	118596	99492	110028	94237	107247	109015	72056	93802	79611	76986	78763	94013	74293	76455	95209	78686	75908	77386	59792	67028	64268	60614	62918	74831	58806	45401	53604	40732	43435	61373	38454	38198	39962	23943	37584	22907	30115	19234	26394	15292	13120	9257	11546	8664	3492	3649	4115	1575	9	0	0	0	0	0	0	0	0	0	0	0	0	0	0	0	0	0	0	0	0	0	0	0	0	0	0	0	0	0	0	0	0	0	0	0	0	0	0	0	0	0	0	0	0	0	0	0	0	
118158	138118	128452	118259	98474	119845	106245	109093	108245	83222	102258	93331	96229	75728	103662	96412	80269	104011	87522	97595	78281	64786	72830	69818	66215	57441	63425	62251	52219	43329	37069	42847	55480	44867	47482	34234	24629	38900	30117	23280	31145	38663	25029	22343	20869	16194	15042	8162	9577	7822	6274	2590	1024	0	0	0	0	0	0	0	0	0	0	0	0	0	0	0	0	0	0	0	0	0	0	0	0	0	0	0	0	0	0	0	0	0	0	0	0	0	0	0	0	0	0	0	0	0	0	0	
138010	135768	124753	120822	110819	135623	113165	134805	133702	93364	92362	98223	97203	89959	111540	95819	91302	116404	91951	94962	87402	76618	81897	87206	69220	80204	91719	83457	60962	66700	54180	54771	59282	49135	58938	56315	32734	45529	41681	30091	30493	37289	21190	22848	25022	25979	16229	9015	7131	7857	6434	6116	6240	2116	0	0	0	0	0	0	0	0	0	0	0	0	0	0	0	0	0	0	0	0	0	0	0	0	0	0	0	0	0	0	0	0	0	0	0	0	0	0	0	0	0	0	0	0	0	0	
136858	167552	144483	136003	117873	141002	122110	139754	147592	111423	123655	109955	100645	97890	116878	117401	97114	119429	102594	110203	96333	70137	92962	84965	79043	74949	92692	73607	78179	66986	54976	66704	77944	62327	79076	61712	34819	51986	46600	31383	43347	48571	28239	27420	26205	36834	27445	15445	19936	5267	7329	3753	8288	7020	1024	0	0	0	0	0	0	0	0	0	0	0	0	0	0	0	0	0	0	0	0	0	0	0	0	0	0	0	0	0	0	0	0	0	0	0	0	0	0	0	0	0	0	0	0	0	
131963	154132	143651	126156	100493	127642	110000	127243	152281	99862	116176	111696	98317	96109	119949	103236	109987	116479	105941	103611	102066	80055	99760	85972	98563	75935	86841	86754	77704	72757	56405	68487	77681	60621	76921	72830	47320	58250	52318	29536	42149	40905	37937	24797	36960	33787	17839	11237	14497	16599	16663	8680	11300	9972	4248	7396	0	0	0	0	0	0	0	0	0	0	0	0	0	0	0	0	0	0	0	0	0	0	0	0	0	0	0	0	0	0	0	0	0	0	0	0	0	0	0	0	0	0	0	0	
142991	167321	150754	136313	113736	147297	127040	141340	163999	101761	126129	119021	118549	101669	131007	113981	106711	118316	107420	112046	103156	82793	100542	94351	80255	82418	97542	89666	69163	70451	56553	67037	70893	58036	66663	58958	38512	51965	50610	43801	42723	49396	32360	28851	37039	24109	19283	10728	15132	13064	16853	7860	12388	7345	1728	4752	169	0	0	0	0	0	0	0	0	0	0	0	0	0	0	0	0	0	0	0	0	0	0	0	0	0	0	0	0	0	0	0	0	0	0	0	0	0	0	0	0	0	0	0	
153756	159144	163499	155861	129146	141058	124197	149164	152147	104085	135371	119952	125947	105835	117177	117586	117845	135964	101546	113247	104979	84166	102434	86016	91906	79833	100853	84515	70840	71574	55774	76019	70130	67287	72275	64888	36296	50935	46696	52119	44656	48288	36675	30000	35532	21353	25168	22873	13883	9404	9959	12044	9894	17209	6622	4642	9968	9801	0	0	0	0	0	0	0	0	0	0	0	0	0	0	0	0	0	0	0	0	0	0	0	0	0	0	0	0	0	0	0	0	0	0	0	0	0	0	0	0	0	0	
122772	130095	127767	113125	117505	124232	108438	129658	134701	94885	107298	116639	99912	91470	107528	101794	99807	121253	102676	109890	92489	80108	94309	83360	69958	72679	84643	70130	61797	59356	56668	63279	68322	61579	72687	57034	34882	52529	46798	42597	51146	59715	33473	36071	39923	35617	37271	23819	23827	17356	13646	15826	12280	16716	5506	3236	9162	7869	7056	0	0	0	0	0	0	0	0	0	0	0	0	0	0	0	0	0	0	0	0	0	0	0	0	0	0	0	0	0	0	0	0	0	0	0	0	0	0	0	0	0	
138255	145138	134053	131354	114934	127829	113460	133840	140748	97092	117158	111410	102941	93792	113363	103181	101689	121252	94719	101333	89540	83098	99104	84183	89000	72856	86237	96622	77250	69206	58388	71897	71795	57568	67262	68601	41710	54140	51459	45775	51618	50538	47927	36529	41328	35114	29468	22625	18602	24643	18948	16336	11345	17964	10958	7977	10711	11542	3404	64	0	0	0	0	0	0	0	0	0	0	0	0	0	0	0	0	0	0	0	0	0	0	0	0	0	0	0	0	0	0	0	0	0	0	0	0	0	0	0	0	
166638	184053	178896	167618	136963	162270	142848	166331	185639	113016	145973	154974	151534	117292	140343	125980	147416	161215	122137	140205	137655	116040	131275	112101	123426	115916	129933	116769	92029	98176	80848	108126	103258	95783	99957	79931	63500	80819	75343	66148	62154	65850	73429	56585	65634	39575	50513	29607	22892	36152	36742	32450	31102	25192	18721	27003	23038	27956	13306	7455	9409	0	0	0	0	0	0	0	0	0	0	0	0	0	0	0	0	0	0	0	0	0	0	0	0	0	0	0	0	0	0	0	0	0	0	0	0	0	0	0	
157938	166513	162880	168786	136941	153765	125269	154820	174887	119395	131562	135171	136508	102444	123924	124530	114960	142512	110628	122789	112084	92746	116872	97472	103285	96539	107579	90543	77843	81619	69941	91100	82104	87717	94181	68556	54914	67809	71467	60169	55519	60452	56175	55764	61018	40968	50570	31531	33657	27255	32867	28011	34102	24339	15728	19815	13652	23683	8901	10487	13943	8836	0	0	0	0	0	0	0	0	0	0	0	0	0	0	0	0	0	0	0	0	0	0	0	0	0	0	0	0	0	0	0	0	0	0	0	0	0	0	
132048	144070	125795	127828	105274	129995	100423	123609	143981	92288	107953	113692	123339	98242	113845	106685	102186	114210	96880	116809	106412	86999	97102	78946	89872	86317	88695	90393	70888	71188	64626	70722	71404	64699	77150	57907	52472	65615	55818	59307	45200	58824	54151	50896	52486	37630	44608	30470	21791	25566	24663	24988	25535	18614	14238	20264	18647	24661	11253	9696	11433	3886	1600	0	0	0	0	0	0	0	0	0	0	0	0	0	0	0	0	0	0	0	0	0	0	0	0	0	0	0	0	0	0	0	0	0	0	0	0	0	
149184	171507	152150	146931	124414	134411	125429	144126	172241	114702	137544	128263	133027	96630	134765	124892	127156	132972	105438	112902	100231	89942	107743	89845	90971	86951	115968	111672	79315	79656	68030	92043	79068	75651	86086	73181	50999	60276	62721	60876	54029	57405	48223	47325	53219	38974	36818	26388	22538	26431	22755	20349	23240	15212	11887	16756	16503	22409	4502	6813	9230	2601	5194	3364	0	0	0	0	0	0	0	0	0	0	0	0	0	0	0	0	0	0	0	0	0	0	0	0	0	0	0	0	0	0	0	0	0	0	0	0	
146764	162529	151319	145580	126893	146262	119708	160785	178974	113583	128693	148902	127685	106763	138740	126159	122031	130671	115710	126537	122875	98751	117310	114563	110381	106195	112996	100158	91470	94346	86752	92528	106211	81391	103091	76989	66095	90776	75061	63671	55145	66801	53395	52539	67389	58160	41827	36381	40989	36219	31410	35751	35475	35195	15089	27980	24977	19544	19469	12510	16202	15684	12816	620	9409	0	0	0	0	0	0	0	0	0	0	0	0	0	0	0	0	0	0	0	0	0	0	0	0	0	0	0	0	0	0	0	0	0	0	0	
158427	167623	164037	149205	136286	163918	118930	152809	187153	125223	129098	147937	139574	126670	135810	131915	127734	144017	137595	132549	127367	111997	133205	102545	102160	113473	126539	120459	83666	97393	91661	95634	105592	98696	108553	88333	61408	84999	75615	79048	59884	83026	56625	67553	74908	51126	52327	41403	30317	41050	32413	35922	39018	28211	11723	20385	28178	26446	19943	13975	19808	10257	10939	2450	3504	2401	0	0	0	0	0	0	0	0	0	0	0	0	0	0	0	0	0	0	0	0	0	0	0	0	0	0	0	0	0	0	0	0	0	0	
154718	170279	162897	154668	135938	155466	110597	143743	160353	123699	124063	144545	127840	118997	128018	128746	116318	133514	106086	116724	116391	89296	110490	85466	91658	95768	107095	100635	82243	78866	84535	84607	88795	75398	91860	77835	48880	75039	74937	68003	58961	73363	56937	57826	69377	57031	54358	42382	38184	42884	31248	43550	43979	40570	21640	31287	35505	32681	29927	17764	24579	12851	20529	7872	13570	1070	3364	0	0	0	0	0	0	0	0	0	0	0	0	0	0	0	0	0	0	0	0	0	0	0	0	0	0	0	0	0	0	0	0	0	
150780	174073	169114	144984	125126	140499	114312	142534	158696	121620	134217	137668	126865	106753	138536	123837	118811	127603	113371	113016	103157	91262	105033	101953	98510	86016	111955	99482	78380	77432	76967	85975	103472	83534	83822	77868	60816	75608	64009	58748	58802	66923	50036	56339	64741	54014	47437	29124	26478	31939	35449	33030	38693	30707	15897	31118	26911	24683	22318	10872	18276	8755	16123	5996	9250	3200	1475	1	0	0	0	0	0	0	0	0	0	0	0	0	0	0	0	0	0	0	0	0	0	0	0	0	0	0	0	0	0	0	0	0	
126667	145121	130738	140940	123793	115818	98946	121253	133168	90908	94267	117047	102014	86565	106608	96563	102046	115243	96398	104701	89799	76120	98000	85426	84519	82798	74690	79795	67472	68726	74108	72926	76697	70924	82122	67390	45372	65196	61425	45046	57073	67170	59584	49117	66203	58479	54133	37220	37095	44108	38881	42682	41903	39783	22077	30282	29668	26442	32840	18365	19147	12139	18677	7442	15726	3069	5420	990	7921	0	0	0	0	0	0	0	0	0	0	0	0	0	0	0	0	0	0	0	0	0	0	0	0	0	0	0	0	0	0	0	
176232	219968	199744	177382	170907	176688	152471	169324	201948	128851	151133	178943	169047	143475	165800	145771	154806	164443	144051	159572	140424	135819	144790	120503	131469	127049	137205	150345	105637	112437	109131	110367	122635	120271	119498	117973	85694	112238	102419	101954	90289	96940	77111	76944	104067	76855	73297	69337	38959	63274	47182	60203	55084	60410	33485	46816	64727	55884	48559	32642	45375	24509	39413	24162	30021	13231	14369	6987	1530	6561	0	0	0	0	0	0	0	0	0	0	0	0	0	0	0	0	0	0	0	0	0	0	0	0	0	0	0	0	0	0	
156482	170386	172182	168385	150458	146734	136277	157394	164650	117610	124293	142756	132742	126057	137318	131882	129209	147688	115183	135292	114568	89175	116814	113518	106848	96312	108266	105530	100691	97642	94764	99355	106574	87394	96791	82148	65707	99201	79977	68826	73129	76626	70537	59256	77785	67670	58057	47685	48658	41605	51203	53892	52483	55750	30816	47726	34414	35336	32795	27199	28104	25823	28957	17414	26926	7247	12233	7325	11835	8228	1600	0	0	0	0	0	0	0	0	0	0	0	0	0	0	0	0	0	0	0	0	0	0	0	0	0	0	0	0	0	
176586	192870	191480	174928	150180	164935	146318	174743	196351	124944	143759	168384	157210	141694	155405	135291	149319	164898	130005	146984	128305	120007	132832	115691	123809	117215	137022	133039	110286	105021	106970	114598	107258	107259	111021	105636	77289	91856	83026	85011	80160	88462	71602	74988	84819	73278	71008	59415	40701	44337	46661	54982	58295	63286	36390	42990	50089	50488	44987	35960	42634	27548	32297	24829	29658	12469	19579	10431	10257	14119	1100	4900	0	0	0	0	0	0	0	0	0	0	0	0	0	0	0	0	0	0	0	0	0	0	0	0	0	0	0	0	
151848	188727	179219	161082	170392	153492	136405	158255	186161	130346	149431	149043	143077	122044	150121	131236	148947	148187	128494	145303	123542	111781	126872	103090	125459	107326	112957	115110	100638	98959	95214	102738	109601	107787	110632	106518	77597	90870	80615	65708	82243	83152	72807	69246	83568	88687	78087	44954	48475	56246	45376	53171	53673	47593	33200	42192	43126	37587	44104	37666	40432	18452	30147	25263	30322	11776	14402	8300	21118	8646	3810	7506	4761	0	0	0	0	0	0	0	0	0	0	0	0	0	0	0	0	0	0	0	0	0	0	0	0	0	0	0	
148076	189594	170831	181221	154920	161579	154726	183674	186869	126532	139835	152388	164222	133245	154745	147677	150042	172416	127072	147229	129935	113330	129529	102356	114897	108737	128142	134459	98664	112934	96424	106524	105710	118137	106196	97048	75131	89393	82297	78815	76252	82882	63055	67863	83789	69794	70951	57314	48265	58951	44544	53835	54301	60531	42460	44269	58204	55752	45256	44629	47929	29631	31665	32287	32960	14809	21529	13598	18328	19961	5666	10248	3486	196	0	0	0	0	0	0	0	0	0	0	0	0	0	0	0	0	0	0	0	0	0	0	0	0	0	0	
187737	217870	184980	192095	162675	191023	145258	197514	214413	140287	159178	174653	151867	141828	155038	149909	156030	169960	147833	155577	146190	131719	157191	130904	135748	120001	132011	148512	118499	124216	115519	116332	128777	121521	114582	123827	86183	111131	90923	90250	91720	105448	79858	89651	95340	93199	76403	62073	46677	68579	71800	54021	57787	63511	43892	42797	54010	58459	56149	41436	48994	27568	43331	36398	31666	20165	21785	20155	13592	20780	9362	14257	11618	4316	1444	0	0	0	0	0	0	0	0	0	0	0	0	0	0	0	0	0	0	0	0	0	0	0	0	0	
182302	219704	189809	207657	182405	195049	167895	186475	210272	136795	165205	161254	157224	148625	162097	156272	159809	174753	156164	177716	159399	114626	142429	123506	135277	120934	129901	127587	120864	109391	114703	125819	127487	110256	125506	108713	86641	109991	93506	91806	91201	104865	85152	66390	86230	91162	73572	62640	58871	46631	57148	69237	53509	66483	45155	57300	53829	39489	52481	49866	41783	32362	51476	44903	50887	20947	31485	25022	31484	27988	18161	9408	14576	11447	8911	9025	0	0	0	0	0	0	0	0	0	0	0	0	0	0	0	0	0	0	0	0	0	0	0	0	
200524	226056	211189	210748	185824	196692	170998	191163	219965	155366	173103	186563	183035	154865	171573	168341	155011	171614	160893	174727	159839	130772	144243	131042	151867	124667	138041	141894	121480	104981	111271	117557	123358	121836	108800	102773	94481	100196	89142	85845	85857	99081	82753	87570	91007	85201	76858	60936	56484	47544	63150	66733	56537	54703	44077	50576	53945	39199	48150	50872	46852	35407	47318	39422	42798	27425	31660	25185	32829	28100	27209	18254	17840	18562	15538	18236	8649	0	0	0	0	0	0	0	0	0	0	0	0	0	0	0	0	0	0	0	0	0	0	0	
177267	200746	192486	175858	162765	172780	155292	174388	202548	123207	156382	168697	141454	160139	157437	154420	148800	166696	149660	154363	145984	118100	142902	114570	129557	128173	135432	138112	135786	111173	109135	109228	126093	117882	110497	97039	84745	116336	99954	78929	93879	92592	82327	83963	92490	82793	75536	64804	57572	55414	57800	64565	57810	61237	39454	46215	60970	42815	48941	51559	52042	36111	39876	32562	40528	27995	26226	21857	25671	26286	15199	16858	10425	7799	7281	6947	7906	1681	0	0	0	0	0	0	0	0	0	0	0	0	0	0	0	0	0	0	0	0	0	0	
188595	204320	209460	187222	183433	202361	161546	198396	217409	153601	185488	190771	160556	165991	176843	156824	160015	176150	163284	178598	155554	130562	149698	139121	144784	118662	127330	148606	113428	120527	117370	110204	134890	126737	118439	115481	88916	113960	86581	88284	104945	111638	91851	87388	104934	90423	92822	78131	63747	60150	73778	71580	62222	70645	46797	42196	63978	46725	63604	43315	45056	32080	50909	34780	50205	29737	31116	25801	30946	23724	18913	13336	16413	10701	11472	14392	12311	4092	2704	0	0	0	0	0	0	0	0	0	0	0	0	0	0	0	0	0	0	0	0	0	
192662	233721	195363	204307	185200	195120	168763	190749	223179	162751	154457	173884	173087	148900	172373	170602	156284	172723	153867	177206	172844	148342	138229	156973	155277	124049	141778	162557	123360	125999	119008	127241	124452	126917	122471	120226	101556	109723	91282	89598	98613	106827	87216	90112	101967	100077	91175	77969	67325	62935	77568	71824	60901	62166	53892	42873	58044	42491	56773	53842	43396	24992	41819	36198	41628	30997	38581	24925	37161	25979	27168	23075	27994	17122	14816	24330	20496	4352	9200	3969	0	0	0	0	0	0	0	0	0	0	0	0	0	0	0	0	0	0	0	0	
187939	226939	203890	211422	194129	202775	173246	205923	222222	166083	193208	181422	187099	176732	160612	188018	180376	185112	171605	188666	167501	137849	167245	133635	160241	146394	139433	159028	137425	121657	127538	135366	147254	131682	139605	126677	113049	128526	106874	123170	106590	113535	100684	93931	113972	111835	96907	103332	80764	62744	75137	87058	68459	79706	58851	58430	80833	66824	66362	61845	57769	49437	69825	46671	58727	49759	41596	36808	32797	39672	29131	20038	31060	24008	23608	28301	25252	10720	12962	4674	2601	0	0	0	0	0	0	0	0	0	0	0	0	0	0	0	0	0	0	0	
183973	201837	199554	186138	178252	185964	145906	178884	193218	154082	148878	160907	147464	153110	151206	151591	147509	169667	167822	167645	157016	119282	140370	136045	138853	129774	137605	156206	120599	124825	136343	131942	140768	126169	127321	109452	92277	105005	80842	89576	103004	120883	88349	92337	102474	104973	94078	84710	75102	56756	74233	73603	68196	71310	54365	43412	62000	48297	57032	55467	45977	38214	54751	47700	52253	36072	44076	34471	43911	39956	32511	27571	24766	18946	17255	28459	22808	9970	12380	5601	2300	1681	0	0	0	0	0	0	0	0	0	0	0	0	0	0	0	0	0	0	
183063	200146	200855	192251	162583	195565	157428	186740	200365	133310	154796	177411	155500	159195	164022	152504	148731	179001	153177	171818	147641	115209	136653	121944	130818	127318	125552	141430	115559	113334	122140	116639	130502	119342	114169	114707	93555	111522	93405	97475	86029	102555	85829	82897	98941	98521	80902	76186	59884	63435	76315	74320	71107	87538	56434	52300	70481	57102	73805	57016	57982	45108	61717	48213	55127	34611	37321	30659	31292	33182	19233	24302	18989	13991	11858	13792	11024	6248	7969	4335	3358	768	49	0	0	0	0	0	0	0	0	0	0	0	0	0	0	0	0	0	
181159	221774	196428	218151	180313	189846	169496	214040	228230	163915	176561	175944	172794	168711	174477	162815	185547	185423	157319	184261	175994	137912	142795	145328	158698	139483	148020	159122	151925	117580	138679	149113	131212	134468	146748	123110	105069	112821	98122	113693	109773	115772	97714	97775	108435	109849	102680	79419	80548	65918	83807	78778	81746	80843	63848	60141	70998	55180	64817	66222	61511	42383	51437	47011	51160	43065	45614	38814	49518	42494	33792	50015	37584	33068	20636	31025	29898	16581	13145	14724	8171	9452	6232	5625	0	0	0	0	0	0	0	0	0	0	0	0	0	0	0	0	
180647	212757	195334	203704	166993	198447	150090	185532	215987	155395	177527	196363	171862	161937	158632	169173	163943	178177	154966	187409	178480	125846	152569	127588	139736	130802	139918	147299	138039	128719	137648	123862	142624	126059	134742	117485	97784	125644	94831	113469	100727	133688	101877	101618	109084	103064	106166	90040	81849	75819	86186	89631	87803	86702	69918	59274	80291	77149	73959	68627	66483	54878	66330	60617	60063	51171	47328	42945	48065	50941	35701	39614	39497	35826	29852	29159	29741	18008	11675	9898	10629	7351	8583	8814	1444	0	0	0	0	0	0	0	0	0	0	0	0	0	0	0	
217715	230023	213137	233723	198212	207958	177032	207517	242135	180251	179829	193661	193042	174354	164662	172804	177677	198616	161563	181589	173916	142898	158458	134007	159599	127525	149022	166348	141434	127588	143846	142006	139011	131196	142438	127314	108892	119287	105086	116417	107629	124696	116518	102994	109106	112886	99409	97333	77021	78399	87976	87680	85564	88329	73628	72844	91417	76247	76111	72182	59691	46595	68576	51556	55750	40747	51424	29336	48862	44530	34575	32140	35066	37026	24741	31789	28362	14532	14658	15374	8840	10886	12368	15406	5760	2704	0	0	0	0	0	0	0	0	0	0	0	0	0	0	
210434	252129	238812	236315	212453	229337	203476	210671	238536	193486	195804	203264	197640	186418	174618	185840	206372	221485	192152	208158	198199	140216	181400	157637	164197	150958	172185	169303	160342	127581	157258	161689	172649	143159	150290	134228	124464	143810	119012	128844	124610	144506	127102	111363	113169	114735	107737	95258	90688	85920	88391	99172	93862	93691	84890	87453	105205	85336	76681	81459	63599	50428	76456	64708	64768	60976	64326	34656	60186	59996	48743	43147	45926	55921	41327	49810	42649	25080	26022	25359	16933	19159	20196	24396	13704	9078	2500	0	0	0	0	0	0	0	0	0	0	0	0	0	
196489	236662	217203	221549	186600	213166	170017	206679	236430	194593	183532	195112	194674	164732	165569	186991	186997	205687	157311	196715	184056	141818	165841	138862	163685	148626	156251	164681	133116	147106	146482	142944	158043	144650	147187	130571	118008	133887	124419	111634	120306	127177	101834	113082	115153	116650	106479	89964	90848	74315	83899	83848	80853	85125	70585	66482	78283	72964	66958	73758	55563	57481	64771	56433	61529	45265	51508	39846	51108	55331	44498	44143	39056	38108	28612	36763	27967	22656	20956	13091	10468	9929	7980	4712	3251	2341	972	3364	0	0	0	0	0	0	0	0	0	0	0	0	
195209	208239	209368	206524	185499	187810	165497	204427	217254	161535	169871	180998	178752	162034	163198	183554	180812	195499	164701	180663	165187	144605	153936	149539	157123	134330	146392	167761	129602	124910	140091	143776	146277	134575	118775	123729	107069	122053	104972	107935	116504	129636	97345	110776	111620	108025	97356	83942	62717	81428	87166	84344	81854	85166	68604	69934	92096	76535	72002	69624	62265	51649	64367	57758	60765	50417	48223	34310	51061	55655	36295	42185	32501	33976	22645	28757	26516	20283	14943	12280	9935	12206	10822	11895	4618	2832	658	144	196	0	0	0	0	0	0	0	0	0	0	0	
204208	215600	216983	222014	200639	219988	184670	219568	248202	174173	202641	205794	208757	189662	199369	197134	196103	222160	175255	207460	193178	162859	169245	157298	182788	170089	164386	174825	162590	142957	155329	155017	150569	155519	160652	145730	125488	143563	128522	123984	124791	139455	120759	120701	120895	113856	110959	96249	88330	95902	96158	98758	92226	100747	72275	71407	95428	84461	84913	82914	68280	58404	71364	61254	62222	59378	56148	35874	52428	55854	49355	55665	44011	52508	37298	39547	39236	29083	29031	19034	16640	19879	22535	22861	13034	7893	2270	3185	1365	49	0	0	0	0	0	0	0	0	0	0	
203870	240101	222707	229516	204432	215952	174611	192097	237856	176577	195521	202579	207101	174240	162606	181646	193345	211019	179859	204647	196862	146407	184462	143155	159295	156743	164803	182230	142317	137973	161086	145111	158911	151531	152435	140640	119813	146754	129205	136667	114166	138468	127938	116041	122419	126456	122005	116922	96642	96882	101788	112027	109813	103264	85829	85218	111086	101811	96717	99807	87702	59945	95300	73450	75016	65075	69474	37730	59264	52864	49201	43182	49173	53732	41175	47757	38276	26113	33542	27999	13243	22316	21335	20914	19207	15802	6947	6043	3003	2139	3844	0	0	0	0	0	0	0	0	0	
212395	241780	221182	230004	218559	246338	191540	210810	250819	188699	187838	213118	225299	191322	195955	198656	199179	221110	192610	222301	210808	179205	177184	170630	193004	161445	174723	182045	176017	153119	175213	156532	153518	158786	171331	169665	126922	153734	123566	144619	122441	158793	143363	135140	139289	130792	129425	118537	108125	116095	105478	118619	118261	111537	95007	84595	110151	104560	89056	87115	90919	80823	96302	83611	93444	69444	70242	40942	67187	54220	64742	57829	60043	73823	59415	57451	51000	44092	43765	35495	24712	42544	40528	42793	37511	29081	13689	21527	12171	11250	13410	7569	0	0	0	0	0	0	0	0	
195883	233423	213414	228846	195594	205593	172774	211090	237892	198618	194698	193782	200524	166684	184971	188968	192548	208852	165304	187651	179788	146938	148606	154717	159939	142235	152101	163712	139491	135697	144705	128748	142572	134120	138630	132463	110942	128917	107670	112420	117955	135768	109423	104682	110767	105977	107091	84267	92783	84452	89370	84981	88548	87547	72222	68238	79755	79975	78785	72537	67351	54850	68131	65145	63723	48628	59221	35894	51808	49538	48373	47130	54207	48866	39532	37487	38215	31960	29736	22041	17292	22231	22839	23847	17481	11646	7034	13159	4857	6983	9940	5250	324	0	0	0	0	0	0	0	
237200	237793	256137	253434	226030	238972	198928	216958	243342	195438	224587	211492	215725	181897	183872	200816	211635	223185	198470	212773	198699	164436	188568	166647	179468	173302	163940	195902	175505	151379	168037	155172	153015	167633	169152	143481	122055	146698	112131	136560	120963	158867	133265	117750	136464	121622	124011	122301	111909	101680	112825	122794	117311	108581	88710	83372	117231	106136	103190	98201	85289	79702	97878	89153	92423	87981	85055	59379	74860	66460	70931	58776	75462	76948	59994	67276	55841	43705	51164	38267	23340	35289	32325	38071	35787	21633	14607	18661	14625	12083	22302	13426	3649	5041	0	0	0	0	0	0	
202029	235528	237102	230499	211092	211137	184264	215635	243927	181372	193698	201658	185302	159507	193830	183784	200523	206676	168266	200906	189849	158069	161342	150364	164929	154437	158247	163979	157073	149687	156282	138392	151861	143194	157564	141301	117863	148619	130490	112948	118248	127594	124972	107405	139183	116647	114180	94904	99903	96879	99252	102431	113974	90523	77690	75899	92356	82023	75126	80354	75039	71410	61691	55838	75402	60490	56221	38764	57257	49220	49137	49576	52948	57619	40201	45759	42856	40025	41107	35413	17291	32537	27240	30787	35608	19624	12483	21489	20596	12805	22276	15034	5617	9118	529	0	0	0	0	0	
229793	263907	248643	257686	229882	242551	228980	238183	249367	201750	206834	206183	200454	193296	213109	200333	208202	236772	190840	224386	201541	170423	172289	165750	177410	161833	165001	186287	166497	158263	181532	160141	149458	155685	193908	150396	126313	152742	134192	139514	137120	161383	134296	126898	149037	138099	128546	120672	127240	125987	114629	123409	126635	107661	99725	103046	112597	104827	91327	93294	86130	93514	97198	82496	96616	76066	82926	52455	68566	67419	83372	70221	71318	87406	64344	73174	70098	56517	55587	52283	29774	53887	39723	50018	43108	33824	16237	35238	21272	27445	31512	26112	11073	10977	9202	7056	0	0	0	0	
215022	241801	242190	240619	207319	232456	205051	226018	249257	194559	215536	234824	221592	203670	204453	212749	213955	254453	206833	241427	222671	176175	188101	167142	188857	180150	201585	207652	182714	166127	176947	173280	173655	186703	185320	164515	138538	175011	145782	151597	151887	164320	141505	127475	159635	124281	139136	128650	114881	124291	121502	132531	128299	117056	105842	101323	120690	114283	97275	105497	106033	84223	89972	92728	87064	72477	75076	52080	67965	69944	70747	59233	61335	68771	49906	57587	51385	38593	47672	38205	23860	32801	31048	40028	34087	24559	11622	19436	13222	13758	13871	9448	9198	6329	5034	2670	8836	0	0	0	
237294	250631	240382	258153	231127	258769	223428	247110	270091	206511	220278	231324	240704	203943	216647	231778	222482	257518	216070	237552	209457	181763	187474	167770	206376	185007	198221	203022	168979	184256	195731	183621	182653	178036	191746	177570	149002	168046	151339	151210	142398	173406	141273	133151	160426	150825	139998	129370	116253	129458	123726	135618	135775	123051	109417	115838	133691	122916	111795	107795	101449	105900	104335	99197	115823	87802	87707	55828	70412	76566	89580	74877	75621	92128	63576	71099	66164	60730	61020	55095	29809	59027	45019	56507	51917	38094	20783	43275	33015	32741	40556	34651	18330	18593	13005	11253	3906	1024	0	0	
217898	243584	241254	230194	211820	227743	213483	212517	261234	197709	209205	200434	217127	202305	196244	213202	217936	240370	210060	220541	183318	164444	193454	182711	185316	163501	183596	195565	174445	156957	165718	162712	167630	163792	185654	166291	135350	154811	148610	135787	146120	152093	136164	137821	146973	130433	129217	118694	110250	113699	111118	115576	125859	114886	89576	101498	104297	117491	100822	89499	82433	92928	97321	84969	92583	85323	78403	57439	64143	69768	74054	55887	59012	75914	63195	62190	70485	51997	51341	42982	31983	42996	35875	46621	39117	33174	15223	34728	25057	27508	31137	30939	16074	14890	14927	17168	3766	3843	961	0	
230455	256584	238435	248013	233415	243044	213617	230466	255794	194198	211327	218368	207692	210773	220922	212752	198158	233979	197321	228353	211124	182656	177899	177780	178555	179667	178832	182873	184019	154140	168094	158340	170252	151797	182874	171232	140594	168644	143917	152067	145264	163689	135179	130033	153408	132905	129957	118660	110950	124117	108302	127034	124854	124816	85734	115772	113808	109915	103713	98690	91417	87966	87548	92257	83778	77767	71863	52533	58935	64507	75574	66383	66154	80807	55602	56248	63484	55328	62325	44907	36987	47235	40285	48610	37173	33203	14280	34573	28133	30384	26141	27335	19652	25516	15039	17092	13804	7693	2840	81	
